Running 1m test @ http://192.168.1.7:9507
  8 threads and 100 connections
  Thread calibration: mean lat.: 10.213ms, rate sampling interval: 44ms
  Thread calibration: mean lat.: 11.654ms, rate sampling interval: 50ms
  Thread calibration: mean lat.: 11.564ms, rate sampling interval: 52ms
  Thread calibration: mean lat.: 11.316ms, rate sampling interval: 48ms
  Thread calibration: mean lat.: 11.021ms, rate sampling interval: 48ms
  Thread calibration: mean lat.: 13.408ms, rate sampling interval: 55ms
  Thread calibration: mean lat.: 10.929ms, rate sampling interval: 47ms
  Thread calibration: mean lat.: 11.129ms, rate sampling interval: 50ms
  Thread Stats   Avg      Stdev     Max   +/- Stdev
    Latency    11.63ms   10.79ms 262.66ms   79.55%
    Req/Sec    12.73k     3.77k   22.89k    67.22%
  Latency Distribution (HdrHistogram - Recorded Latency)
 50.000%    9.86ms
 75.000%   16.69ms
 90.000%   25.66ms
 99.000%   35.58ms
 99.900%  119.29ms
 99.990%  234.75ms
 99.999%  247.68ms
100.000%  262.91ms

  Detailed Percentile spectrum:
       Value   Percentile   TotalCount 1/(1-Percentile)

       0.118     0.000000            1         1.00
       1.048     0.100000       499698         1.11
       2.355     0.200000       999252         1.25
       4.967     0.300000      1499109         1.43
       7.455     0.400000      1998305         1.67
       9.863     0.500000      2497998         2.00
      11.039     0.550000      2747221         2.22
      12.255     0.600000      2997728         2.50
      13.567     0.650000      3247043         2.86
      15.023     0.700000      3496538         3.33
      16.687     0.750000      3746935         4.00
      17.631     0.775000      3871624         4.44
      18.703     0.800000      3996359         5.00
      19.983     0.825000      4121718         5.71
      21.663     0.850000      4245683         6.67
      23.599     0.875000      4370386         8.00
      24.623     0.887500      4433595         8.89
      25.663     0.900000      4496082        10.00
      26.719     0.912500      4557704        11.43
      27.823     0.925000      4620923        13.33
      28.927     0.937500      4683261        16.00
      29.487     0.943750      4713997        17.78
      30.079     0.950000      4745471        20.00
      30.703     0.956250      4776785        22.86
      31.375     0.962500      4807957        26.67
      32.095     0.968750      4838680        32.00
      32.495     0.971875      4854476        35.56
      32.927     0.975000      4870555        40.00
      33.375     0.978125      4885778        45.71
      33.855     0.981250      4901020        53.33
      34.399     0.984375      4916658        64.00
      34.719     0.985938      4925186        71.11
      35.007     0.987500      4932272        80.00
      35.359     0.989062      4940308        91.43
      35.743     0.990625      4948419       106.67
      36.127     0.992188      4955641       128.00
      36.383     0.992969      4960050       142.22
      36.607     0.993750      4963555       160.00
      36.895     0.994531      4967673       182.86
      37.215     0.995313      4971624       213.33
      37.535     0.996094      4975140       256.00
      37.759     0.996484      4977183       284.44
      37.983     0.996875      4979135       320.00
      38.271     0.997266      4981082       365.71
      38.591     0.997656      4983054       426.67
      39.071     0.998047      4984886       512.00
      39.487     0.998242      4985856       568.89
      48.927     0.998437      4986833       640.00
      75.263     0.998633      4987807       731.43
     101.183     0.998828      4988785       853.33
     121.919     0.999023      4989760      1024.00
     133.119     0.999121      4990247      1137.78
     145.663     0.999219      4990735      1280.00
     158.335     0.999316      4991221      1462.86
     169.599     0.999414      4991713      1706.67
     183.039     0.999512      4992198      2048.00
     189.439     0.999561      4992444      2275.56
     196.607     0.999609      4992684      2560.00
     203.647     0.999658      4992931      2925.71
     210.559     0.999707      4993172      3413.33
     217.215     0.999756      4993420      4096.00
     220.415     0.999780      4993539      4551.11
     223.487     0.999805      4993664      5120.00
     226.431     0.999829      4993782      5851.43
     229.503     0.999854      4993910      6826.67
     232.319     0.999878      4994029      8192.00
     233.727     0.999890      4994092      9102.22
     235.135     0.999902      4994153     10240.00
     236.415     0.999915      4994212     11702.86
     237.695     0.999927      4994275     13653.33
     239.231     0.999939      4994336     16384.00
     239.999     0.999945      4994362     18204.44
     240.767     0.999951      4994397     20480.00
     241.407     0.999957      4994424     23405.71
     242.303     0.999963      4994455     27306.67
     243.199     0.999969      4994484     32768.00
     243.711     0.999973      4994499     36408.89
     244.351     0.999976      4994514     40960.00
     245.119     0.999979      4994533     46811.43
     245.631     0.999982      4994545     54613.33
     246.143     0.999985      4994560     65536.00
     246.399     0.999986      4994567     72817.78
     246.911     0.999988      4994575     81920.00
     247.551     0.999989      4994583     93622.86
     248.319     0.999991      4994591    109226.67
     249.087     0.999992      4994597    131072.00
     249.727     0.999993      4994601    145635.56
     250.751     0.999994      4994605    163840.00
     251.775     0.999995      4994609    187245.71
     252.799     0.999995      4994613    218453.33
     253.567     0.999996      4994616    262144.00
     253.823     0.999997      4994618    291271.11
     254.335     0.999997      4994620    327680.00
     254.463     0.999997      4994622    374491.43
     255.871     0.999998      4994624    436906.67
     257.279     0.999998      4994626    524288.00
     257.919     0.999998      4994627    582542.22
     258.559     0.999998      4994628    655360.00
     259.199     0.999999      4994629    748982.86
     259.711     0.999999      4994630    873813.33
     260.351     0.999999      4994631   1048576.00
     260.351     0.999999      4994631   1165084.44
     261.119     0.999999      4994632   1310720.00
     261.119     0.999999      4994632   1497965.71
     261.759     0.999999      4994633   1747626.67
     261.759     1.000000      4994633   2097152.00
     261.759     1.000000      4994633   2330168.89
     262.399     1.000000      4994634   2621440.00
     262.399     1.000000      4994634   2995931.43
     262.399     1.000000      4994634   3495253.33
     262.399     1.000000      4994634   4194304.00
     262.399     1.000000      4994634   4660337.78
     262.911     1.000000      4994635   5242880.00
     262.911     1.000000      4994635          inf
#[Mean    =       11.633, StdDeviation   =       10.793]
#[Max     =      262.656, Total count    =      4994635]
#[Buckets =           27, SubBuckets     =         2048]
----------------------------------------------------------
  5983730 requests in 1.00m, 730.44MB read
Requests/sec:  99704.58
Transfer/sec:     12.17MB
