Running 1m test @ http://192.168.1.7:9528
  8 threads and 1000 connections
  Thread calibration: mean lat.: 32.309ms, rate sampling interval: 229ms
  Thread calibration: mean lat.: 59.816ms, rate sampling interval: 350ms
  Thread calibration: mean lat.: 48.094ms, rate sampling interval: 321ms
  Thread calibration: mean lat.: 47.536ms, rate sampling interval: 318ms
  Thread calibration: mean lat.: 86.632ms, rate sampling interval: 388ms
  Thread calibration: mean lat.: 52.139ms, rate sampling interval: 340ms
  Thread calibration: mean lat.: 49.964ms, rate sampling interval: 329ms
  Thread calibration: mean lat.: 95.225ms, rate sampling interval: 387ms
  Thread Stats   Avg      Stdev     Max   +/- Stdev
    Latency    45.61ms   70.31ms   1.16s    85.15%
    Req/Sec     6.26k     1.10k   10.96k    74.14%
  Latency Distribution (HdrHistogram - Recorded Latency)
 50.000%   15.25ms
 75.000%   34.14ms
 90.000%  153.34ms
 99.000%  320.00ms
 99.900%  530.43ms
 99.990%  808.45ms
 99.999%    1.04s 
100.000%    1.16s 

  Detailed Percentile spectrum:
       Value   Percentile   TotalCount 1/(1-Percentile)

       0.179     0.000000            1         1.00
       5.143     0.100000       246777         1.11
       9.959     0.200000       493742         1.25
      11.639     0.300000       740098         1.43
      13.143     0.400000       986859         1.67
      15.247     0.500000      1233586         2.00
      16.303     0.550000      1357166         2.22
      17.455     0.600000      1480761         2.50
      19.503     0.650000      1603536         2.86
      22.383     0.700000      1726795         3.33
      34.143     0.750000      1850075         4.00
      54.623     0.775000      1911708         4.44
      75.007     0.800000      1973465         5.00
      95.103     0.825000      2035124         5.71
     115.007     0.850000      2096910         6.67
     134.271     0.875000      2158500         8.00
     143.615     0.887500      2189243         8.89
     153.343     0.900000      2220405        10.00
     162.687     0.912500      2251329        11.43
     172.159     0.925000      2282210        13.33
     181.247     0.937500      2312944        16.00
     185.599     0.943750      2328044        17.78
     190.463     0.950000      2343937        20.00
     193.151     0.956250      2359015        22.86
     199.679     0.962500      2374605        26.67
     202.623     0.968750      2389769        32.00
     210.303     0.971875      2397369        35.56
     224.127     0.975000      2405077        40.00
     240.255     0.978125      2412773        45.71
     257.919     0.981250      2420465        53.33
     277.503     0.984375      2428224        64.00
     289.791     0.985938      2432087        71.11
     299.775     0.987500      2435896        80.00
     312.319     0.989062      2439784        91.43
     325.631     0.990625      2443586       106.67
     340.735     0.992188      2447431       128.00
     349.695     0.992969      2449359       142.22
     358.143     0.993750      2451309       160.00
     369.919     0.994531      2453283       182.86
     383.999     0.995313      2455183       213.33
     402.431     0.996094      2457122       256.00
     410.623     0.996484      2458035       284.44
     420.607     0.996875      2459014       320.00
     433.663     0.997266      2459965       365.71
     451.839     0.997656      2460930       426.67
     469.503     0.998047      2461886       512.00
     477.183     0.998242      2462373       568.89
     491.775     0.998437      2462863       640.00
     503.551     0.998633      2463327       731.43
     513.535     0.998828      2463812       853.33
     531.967     0.999023      2464305      1024.00
     541.695     0.999121      2464559      1137.78
     551.423     0.999219      2464793      1280.00
     564.735     0.999316      2465019      1462.86
     574.463     0.999414      2465256      1706.67
     590.335     0.999512      2465511      2048.00
     600.575     0.999561      2465617      2275.56
     612.863     0.999609      2465744      2560.00
     630.783     0.999658      2465857      2925.71
     650.239     0.999707      2465982      3413.33
     670.207     0.999756      2466103      4096.00
     677.375     0.999780      2466158      4551.11
     691.711     0.999805      2466221      5120.00
     717.823     0.999829      2466278      5851.43
     741.375     0.999854      2466338      6826.67
     768.511     0.999878      2466398      8192.00
     788.991     0.999890      2466430      9102.22
     817.151     0.999902      2466460     10240.00
     839.679     0.999915      2466489     11702.86
     867.327     0.999927      2466519     13653.33
     902.655     0.999939      2466549     16384.00
     918.015     0.999945      2466565     18204.44
     929.791     0.999951      2466581     20480.00
     942.591     0.999957      2466594     23405.71
     961.023     0.999963      2466609     27306.67
     979.455     0.999969      2466624     32768.00
     989.183     0.999973      2466632     36408.89
     997.887     0.999976      2466642     40960.00
    1007.103     0.999979      2466647     46811.43
    1016.831     0.999982      2466657     54613.33
    1023.487     0.999985      2466662     65536.00
    1033.215     0.999986      2466667     72817.78
    1035.775     0.999988      2466672     81920.00
    1042.943     0.999989      2466673     93622.86
    1043.967     0.999991      2466677    109226.67
    1054.719     0.999992      2466682    131072.00
    1062.911     0.999993      2466684    145635.56
    1062.911     0.999994      2466684    163840.00
    1082.367     0.999995      2466687    187245.71
    1092.607     0.999995      2466688    218453.33
    1101.823     0.999996      2466690    262144.00
    1112.063     0.999997      2466691    291271.11
    1120.255     0.999997      2466693    327680.00
    1120.255     0.999997      2466693    374491.43
    1131.519     0.999998      2466694    436906.67
    1139.711     0.999998      2466696    524288.00
    1139.711     0.999998      2466696    582542.22
    1139.711     0.999998      2466696    655360.00
    1139.711     0.999999      2466696    748982.86
    1149.951     0.999999      2466697    873813.33
    1149.951     0.999999      2466697   1048576.00
    1149.951     0.999999      2466697   1165084.44
    1159.167     0.999999      2466699   1310720.00
    1159.167     1.000000      2466699          inf
#[Mean    =       45.608, StdDeviation   =       70.308]
#[Max     =     1158.144, Total count    =      2466699]
#[Buckets =           27, SubBuckets     =         2048]
----------------------------------------------------------
  2950225 requests in 1.00m, 360.13MB read
Requests/sec:  49163.49
Transfer/sec:      6.00MB
