Running 1m test @ http://192.168.1.7:9504
  8 threads and 100 connections
  Thread calibration: mean lat.: 12.352ms, rate sampling interval: 42ms
  Thread calibration: mean lat.: 11.922ms, rate sampling interval: 40ms
  Thread calibration: mean lat.: 11.916ms, rate sampling interval: 40ms
  Thread calibration: mean lat.: 12.608ms, rate sampling interval: 43ms
  Thread calibration: mean lat.: 15.329ms, rate sampling interval: 55ms
  Thread calibration: mean lat.: 12.606ms, rate sampling interval: 43ms
  Thread calibration: mean lat.: 12.256ms, rate sampling interval: 42ms
  Thread calibration: mean lat.: 12.265ms, rate sampling interval: 42ms
  Thread Stats   Avg      Stdev     Max   +/- Stdev
    Latency    12.39ms    6.24ms  30.67ms   63.74%
    Req/Sec     6.41k     0.88k    8.54k    63.52%
  Latency Distribution (HdrHistogram - Recorded Latency)
 50.000%   12.49ms
 75.000%   16.25ms
 90.000%   21.28ms
 99.000%   25.26ms
 99.900%   26.74ms
 99.990%   27.93ms
 99.999%   28.99ms
100.000%   30.69ms

  Detailed Percentile spectrum:
       Value   Percentile   TotalCount 1/(1-Percentile)

       0.108     0.000000            1         1.00
       3.297     0.100000       249772         1.11
       6.659     0.200000       499410         1.25
       9.567     0.300000       749974         1.43
      11.199     0.400000       999078         1.67
      12.495     0.500000      1249580         2.00
      13.119     0.550000      1374612         2.22
      13.735     0.600000      1499066         2.50
      14.367     0.650000      1624021         2.86
      15.119     0.700000      1748027         3.33
      16.247     0.750000      1873281         4.00
      17.055     0.775000      1935470         4.44
      17.887     0.800000      1997663         5.00
      18.735     0.825000      2060059         5.71
      19.583     0.850000      2123258         6.67
      20.431     0.875000      2184975         8.00
      20.863     0.887500      2216645         8.89
      21.279     0.900000      2247247        10.00
      21.727     0.912500      2278747        11.43
      22.175     0.925000      2310461        13.33
      22.639     0.937500      2341081        16.00
      22.879     0.943750      2357120        17.78
      23.119     0.950000      2372741        20.00
      23.375     0.956250      2387935        22.86
      23.663     0.962500      2404246        26.67
      23.951     0.968750      2419542        32.00
      24.095     0.971875      2426998        35.56
      24.271     0.975000      2435132        40.00
      24.431     0.978125      2442669        45.71
      24.623     0.981250      2450627        53.33
      24.815     0.984375      2458024        64.00
      24.927     0.985938      2461919        71.11
      25.039     0.987500      2465814        80.00
      25.183     0.989062      2469777        91.43
      25.311     0.990625      2473798       106.67
      25.471     0.992188      2477559       128.00
      25.551     0.992969      2479529       142.22
      25.631     0.993750      2481389       160.00
      25.743     0.994531      2483517       182.86
      25.855     0.995313      2485430       213.33
      25.951     0.996094      2487339       256.00
      26.015     0.996484      2488245       284.44
      26.095     0.996875      2489155       320.00
      26.175     0.997266      2490212       365.71
      26.239     0.997656      2491076       426.67
      26.335     0.998047      2492153       512.00
      26.399     0.998242      2492607       568.89
      26.463     0.998437      2493008       640.00
      26.543     0.998633      2493537       731.43
      26.623     0.998828      2494032       853.33
      26.751     0.999023      2494502      1024.00
      26.815     0.999121      2494746      1137.78
      26.879     0.999219      2495004      1280.00
      26.943     0.999316      2495218      1462.86
      27.055     0.999414      2495470      1706.67
      27.167     0.999512      2495701      2048.00
      27.231     0.999561      2495842      2275.56
      27.279     0.999609      2495931      2560.00
      27.359     0.999658      2496058      2925.71
      27.487     0.999707      2496197      3413.33
      27.567     0.999756      2496312      4096.00
      27.631     0.999780      2496364      4551.11
      27.711     0.999805      2496431      5120.00
      27.775     0.999829      2496488      5851.43
      27.839     0.999854      2496561      6826.67
      27.871     0.999878      2496604      8192.00
      27.903     0.999890      2496637      9102.22
      27.951     0.999902      2496672     10240.00
      27.999     0.999915      2496698     11702.86
      28.079     0.999927      2496728     13653.33
      28.111     0.999939      2496756     16384.00
      28.143     0.999945      2496775     18204.44
      28.175     0.999951      2496792     20480.00
      28.191     0.999957      2496800     23405.71
      28.239     0.999963      2496819     27306.67
      28.287     0.999969      2496831     32768.00
      28.335     0.999973      2496842     36408.89
      28.431     0.999976      2496847     40960.00
      28.495     0.999979      2496853     46811.43
      28.575     0.999982      2496862     54613.33
      28.751     0.999985      2496869     65536.00
      28.799     0.999986      2496873     72817.78
      28.895     0.999988      2496876     81920.00
      28.959     0.999989      2496880     93622.86
      29.151     0.999991      2496885    109226.67
      29.247     0.999992      2496887    131072.00
      29.279     0.999993      2496889    145635.56
      29.375     0.999994      2496891    163840.00
      29.471     0.999995      2496893    187245.71
      29.567     0.999995      2496896    218453.33
      29.599     0.999996      2496898    262144.00
      29.599     0.999997      2496898    291271.11
      29.663     0.999997      2496899    327680.00
      29.695     0.999997      2496900    374491.43
      29.727     0.999998      2496901    436906.67
      30.191     0.999998      2496902    524288.00
      30.191     0.999998      2496902    582542.22
      30.239     0.999998      2496903    655360.00
      30.239     0.999999      2496903    748982.86
      30.287     0.999999      2496904    873813.33
      30.287     0.999999      2496904   1048576.00
      30.287     0.999999      2496904   1165084.44
      30.639     0.999999      2496905   1310720.00
      30.639     0.999999      2496905   1497965.71
      30.639     0.999999      2496905   1747626.67
      30.639     1.000000      2496905   2097152.00
      30.639     1.000000      2496905   2330168.89
      30.687     1.000000      2496906   2621440.00
      30.687     1.000000      2496906          inf
#[Mean    =       12.388, StdDeviation   =        6.236]
#[Max     =       30.672, Total count    =      2496906]
#[Buckets =           27, SubBuckets     =         2048]
----------------------------------------------------------
  2991579 requests in 1.00m, 365.18MB read
Requests/sec:  49850.81
Transfer/sec:      6.09MB
