{"cpu_time": 0.01, "user_time": 0.0, "system_time": 0.01, "elapsed_time": 0.0, "cpu_usage": 0.0, "vss_mib": 786.5234375, "rss_mib": 6.6171875, "num_processes": 1, "taken_at": [1612643148.312378]}
{"cpu_time": 2.31, "user_time": 1.07, "system_time": 1.24, "elapsed_time": 1.0, "cpu_usage": 23.4, "vss_mib": 786.5234375, "rss_mib": 32.609375, "num_processes": 1, "taken_at": [1612643149.3217986]}
{"cpu_time": 6.31, "user_time": 3.62, "system_time": 2.68, "elapsed_time": 2.0, "cpu_usage": 57.5, "vss_mib": 786.5234375, "rss_mib": 58.2890625, "num_processes": 1, "taken_at": [1612643150.3313005]}
{"cpu_time": 10.54, "user_time": 6.2, "system_time": 4.34, "elapsed_time": 3.0, "cpu_usage": 90.1, "vss_mib": 786.5234375, "rss_mib": 68.61328125, "num_processes": 1, "taken_at": [1612643151.3423977]}
{"cpu_time": 14.52, "user_time": 8.51, "system_time": 6.01, "elapsed_time": 4.0, "cpu_usage": 117.6, "vss_mib": 786.5234375, "rss_mib": 74.4921875, "num_processes": 1, "taken_at": [1612643152.3535323]}
{"cpu_time": 18.91, "user_time": 10.97, "system_time": 7.94, "elapsed_time": 5.0, "cpu_usage": 146.9, "vss_mib": 786.5234375, "rss_mib": 77.63671875, "num_processes": 1, "taken_at": [1612643153.3638084]}
{"cpu_time": 23.16, "user_time": 13.58, "system_time": 9.57, "elapsed_time": 6.0, "cpu_usage": 172.2, "vss_mib": 786.5234375, "rss_mib": 78.65625, "num_processes": 1, "taken_at": [1612643154.3835237]}
{"cpu_time": 27.42, "user_time": 16.27, "system_time": 11.15, "elapsed_time": 7.0, "cpu_usage": 195.3, "vss_mib": 786.5234375, "rss_mib": 79.04296875, "num_processes": 1, "taken_at": [1612643155.3943703]}
{"cpu_time": 31.91, "user_time": 19.18, "system_time": 12.73, "elapsed_time": 8.0, "cpu_usage": 218.6, "vss_mib": 786.5234375, "rss_mib": 79.42578125, "num_processes": 1, "taken_at": [1612643156.4355605]}
{"cpu_time": 36.21, "user_time": 21.83, "system_time": 14.38, "elapsed_time": 9.0, "cpu_usage": 238.0, "vss_mib": 786.5234375, "rss_mib": 79.74609375, "num_processes": 1, "taken_at": [1612643157.4463966]}
{"cpu_time": 40.33, "user_time": 24.41, "system_time": 15.92, "elapsed_time": 10.0, "cpu_usage": 254.4, "vss_mib": 786.5234375, "rss_mib": 79.94140625, "num_processes": 1, "taken_at": [1612643158.457686]}
{"cpu_time": 44.61, "user_time": 27.14, "system_time": 17.47, "elapsed_time": 11.0, "cpu_usage": 270.2, "vss_mib": 786.5234375, "rss_mib": 80.05859375, "num_processes": 1, "taken_at": [1612643159.4697583]}
{"cpu_time": 48.76, "user_time": 29.68, "system_time": 19.07, "elapsed_time": 12.0, "cpu_usage": 284.0, "vss_mib": 786.5234375, "rss_mib": 80.19921875, "num_processes": 1, "taken_at": [1612643160.4825885]}
{"cpu_time": 52.96, "user_time": 32.47, "system_time": 20.49, "elapsed_time": 13.0, "cpu_usage": 296.3, "vss_mib": 786.5234375, "rss_mib": 80.3984375, "num_processes": 1, "taken_at": [1612643161.493682]}
{"cpu_time": 56.9, "user_time": 34.48, "system_time": 22.42, "elapsed_time": 14.0, "cpu_usage": 305.4, "vss_mib": 786.5234375, "rss_mib": 80.56640625, "num_processes": 1, "taken_at": [1612643162.5049863]}
{"cpu_time": 61.05, "user_time": 36.9, "system_time": 24.15, "elapsed_time": 15.0, "cpu_usage": 315.7, "vss_mib": 786.5234375, "rss_mib": 81.01953125, "num_processes": 1, "taken_at": [1612643163.5168743]}
{"cpu_time": 65.3, "user_time": 39.48, "system_time": 25.82, "elapsed_time": 16.0, "cpu_usage": 326.7, "vss_mib": 786.5234375, "rss_mib": 81.046875, "num_processes": 1, "taken_at": [1612643164.5296338]}
{"cpu_time": 69.61, "user_time": 42.14, "system_time": 27.48, "elapsed_time": 17.0, "cpu_usage": 336.5, "vss_mib": 786.5234375, "rss_mib": 81.05078125, "num_processes": 1, "taken_at": [1612643165.5410979]}
{"cpu_time": 73.71000000000001, "user_time": 44.61, "system_time": 29.1, "elapsed_time": 18.0, "cpu_usage": 343.8, "vss_mib": 786.5234375, "rss_mib": 81.05078125, "num_processes": 1, "taken_at": [1612643166.551168]}
{"cpu_time": 78.06, "user_time": 46.92, "system_time": 31.15, "elapsed_time": 19.0, "cpu_usage": 353.4, "vss_mib": 786.5234375, "rss_mib": 81.06640625, "num_processes": 1, "taken_at": [1612643167.5670745]}
{"cpu_time": 82.34, "user_time": 49.27, "system_time": 33.06, "elapsed_time": 20.0, "cpu_usage": 360.6, "vss_mib": 786.5234375, "rss_mib": 81.078125, "num_processes": 1, "taken_at": [1612643168.5883899]}
{"cpu_time": 86.59, "user_time": 51.75, "system_time": 34.84, "elapsed_time": 21.0, "cpu_usage": 366.8, "vss_mib": 786.5234375, "rss_mib": 81.08203125, "num_processes": 1, "taken_at": [1612643169.5994806]}
{"cpu_time": 90.72, "user_time": 54.34, "system_time": 36.37, "elapsed_time": 22.0, "cpu_usage": 371.8, "vss_mib": 786.5234375, "rss_mib": 81.08203125, "num_processes": 1, "taken_at": [1612643170.6086009]}
{"cpu_time": 94.91, "user_time": 56.93, "system_time": 37.98, "elapsed_time": 23.0, "cpu_usage": 376.7, "vss_mib": 786.5234375, "rss_mib": 81.08203125, "num_processes": 1, "taken_at": [1612643171.6191127]}
{"cpu_time": 99.21000000000001, "user_time": 59.55, "system_time": 39.66, "elapsed_time": 24.0, "cpu_usage": 382.8, "vss_mib": 786.5234375, "rss_mib": 81.08203125, "num_processes": 1, "taken_at": [1612643172.6317282]}
{"cpu_time": 103.61, "user_time": 62.24, "system_time": 41.38, "elapsed_time": 25.0, "cpu_usage": 388.7, "vss_mib": 786.5234375, "rss_mib": 81.24609375, "num_processes": 1, "taken_at": [1612643173.64323]}
{"cpu_time": 108.02000000000001, "user_time": 64.83, "system_time": 43.19, "elapsed_time": 26.0, "cpu_usage": 394.3, "vss_mib": 786.5234375, "rss_mib": 81.484375, "num_processes": 1, "taken_at": [1612643174.6847513]}
{"cpu_time": 112.31, "user_time": 67.42, "system_time": 44.89, "elapsed_time": 27.0, "cpu_usage": 398.6, "vss_mib": 786.5234375, "rss_mib": 81.90625, "num_processes": 1, "taken_at": [1612643175.6956437]}
{"cpu_time": 116.19, "user_time": 69.77, "system_time": 46.42, "elapsed_time": 28.0, "cpu_usage": 398.4, "vss_mib": 786.5234375, "rss_mib": 82.12890625, "num_processes": 1, "taken_at": [1612643176.7075315]}
{"cpu_time": 120.61, "user_time": 72.63, "system_time": 47.98, "elapsed_time": 29.0, "cpu_usage": 403.9, "vss_mib": 786.5234375, "rss_mib": 82.484375, "num_processes": 1, "taken_at": [1612643177.7170436]}
{"cpu_time": 125.05, "user_time": 75.3, "system_time": 49.75, "elapsed_time": 30.0, "cpu_usage": 408.9, "vss_mib": 786.5234375, "rss_mib": 83.0078125, "num_processes": 1, "taken_at": [1612643178.728611]}
{"cpu_time": 128.99, "user_time": 77.43, "system_time": 51.57, "elapsed_time": 31.0, "cpu_usage": 408.6, "vss_mib": 786.5234375, "rss_mib": 83.08203125, "num_processes": 1, "taken_at": [1612643179.7713697]}
{"cpu_time": 133.38, "user_time": 80.32, "system_time": 53.06, "elapsed_time": 32.0, "cpu_usage": 412.5, "vss_mib": 786.5234375, "rss_mib": 83.09765625, "num_processes": 1, "taken_at": [1612643180.7826517]}
{"cpu_time": 137.52, "user_time": 82.78, "system_time": 54.74, "elapsed_time": 33.0, "cpu_usage": 414.7, "vss_mib": 786.5234375, "rss_mib": 83.09765625, "num_processes": 1, "taken_at": [1612643181.8049684]}
{"cpu_time": 141.73, "user_time": 85.26, "system_time": 56.46, "elapsed_time": 34.0, "cpu_usage": 416.4, "vss_mib": 786.5234375, "rss_mib": 83.1484375, "num_processes": 1, "taken_at": [1612643182.82265]}
{"cpu_time": 145.98, "user_time": 87.82, "system_time": 58.16, "elapsed_time": 35.0, "cpu_usage": 418.0, "vss_mib": 786.5234375, "rss_mib": 83.27734375, "num_processes": 1, "taken_at": [1612643183.848497]}
{"cpu_time": 150.07, "user_time": 90.28, "system_time": 59.79, "elapsed_time": 36.0, "cpu_usage": 418.4, "vss_mib": 786.5234375, "rss_mib": 83.27734375, "num_processes": 1, "taken_at": [1612643184.859501]}
{"cpu_time": 153.98, "user_time": 92.58, "system_time": 61.4, "elapsed_time": 37.0, "cpu_usage": 417.3, "vss_mib": 786.5234375, "rss_mib": 83.40234375, "num_processes": 1, "taken_at": [1612643185.8707004]}
{"cpu_time": 158.13, "user_time": 94.93, "system_time": 63.2, "elapsed_time": 38.0, "cpu_usage": 418.6, "vss_mib": 786.5234375, "rss_mib": 83.5078125, "num_processes": 1, "taken_at": [1612643186.8824978]}
{"cpu_time": 162.2, "user_time": 97.25, "system_time": 64.96, "elapsed_time": 39.0, "cpu_usage": 418.1, "vss_mib": 786.5234375, "rss_mib": 83.58203125, "num_processes": 1, "taken_at": [1612643187.893587]}
{"cpu_time": 166.42000000000002, "user_time": 99.64, "system_time": 66.78, "elapsed_time": 40.0, "cpu_usage": 419.6, "vss_mib": 786.5234375, "rss_mib": 83.93359375, "num_processes": 1, "taken_at": [1612643188.9068954]}
{"cpu_time": 170.59, "user_time": 102.06, "system_time": 68.53, "elapsed_time": 41.0, "cpu_usage": 420.7, "vss_mib": 786.5234375, "rss_mib": 84.18359375, "num_processes": 1, "taken_at": [1612643189.9186227]}
{"cpu_time": 174.89, "user_time": 104.81, "system_time": 70.08, "elapsed_time": 42.0, "cpu_usage": 422.8, "vss_mib": 786.5234375, "rss_mib": 84.49609375, "num_processes": 1, "taken_at": [1612643190.9300728]}
{"cpu_time": 178.91, "user_time": 107.11, "system_time": 71.8, "elapsed_time": 43.0, "cpu_usage": 421.1, "vss_mib": 786.5234375, "rss_mib": 84.8125, "num_processes": 1, "taken_at": [1612643191.9450445]}
{"cpu_time": 183.2, "user_time": 109.88, "system_time": 73.32, "elapsed_time": 44.0, "cpu_usage": 423.2, "vss_mib": 786.5234375, "rss_mib": 85.28515625, "num_processes": 1, "taken_at": [1612643192.955664]}
{"cpu_time": 187.22, "user_time": 112.33, "system_time": 74.88, "elapsed_time": 45.0, "cpu_usage": 422.3, "vss_mib": 786.5234375, "rss_mib": 85.63671875, "num_processes": 1, "taken_at": [1612643193.9654267]}
{"cpu_time": 191.29, "user_time": 114.58, "system_time": 76.71000000000001, "elapsed_time": 46.0, "cpu_usage": 422.5, "vss_mib": 786.5234375, "rss_mib": 85.8984375, "num_processes": 1, "taken_at": [1612643194.97411]}
{"cpu_time": 195.82, "user_time": 117.38, "system_time": 78.43, "elapsed_time": 48.0, "cpu_usage": 426.3, "vss_mib": 786.5234375, "rss_mib": 86.12890625, "num_processes": 1, "taken_at": [1612643196.0251064]}
{"cpu_time": 200.07, "user_time": 120.06, "system_time": 80.01, "elapsed_time": 49.0, "cpu_usage": 428.1, "vss_mib": 786.5234375, "rss_mib": 86.30078125, "num_processes": 1, "taken_at": [1612643197.034475]}
{"cpu_time": 204.52, "user_time": 122.86, "system_time": 81.66, "elapsed_time": 50.0, "cpu_usage": 431.0, "vss_mib": 786.5234375, "rss_mib": 86.31640625, "num_processes": 1, "taken_at": [1612643198.0672781]}
{"cpu_time": 208.82999999999998, "user_time": 125.47, "system_time": 83.37, "elapsed_time": 51.0, "cpu_usage": 432.8, "vss_mib": 786.5234375, "rss_mib": 86.3515625, "num_processes": 1, "taken_at": [1612643199.0786452]}
{"cpu_time": 213.01, "user_time": 127.92, "system_time": 85.09, "elapsed_time": 52.0, "cpu_usage": 432.9, "vss_mib": 786.5234375, "rss_mib": 86.3515625, "num_processes": 1, "taken_at": [1612643200.0905235]}
{"cpu_time": 217.18, "user_time": 130.02, "system_time": 87.16, "elapsed_time": 53.0, "cpu_usage": 432.8, "vss_mib": 786.5234375, "rss_mib": 86.58203125, "num_processes": 1, "taken_at": [1612643201.1414018]}
{"cpu_time": 221.15, "user_time": 132.22, "system_time": 88.94, "elapsed_time": 54.0, "cpu_usage": 430.6, "vss_mib": 786.5234375, "rss_mib": 86.58203125, "num_processes": 1, "taken_at": [1612643202.1526506]}
{"cpu_time": 225.32, "user_time": 134.59, "system_time": 90.74, "elapsed_time": 55.0, "cpu_usage": 430.9, "vss_mib": 786.5234375, "rss_mib": 86.58203125, "num_processes": 1, "taken_at": [1612643203.1640725]}
{"cpu_time": 229.56, "user_time": 137.16, "system_time": 92.39, "elapsed_time": 56.0, "cpu_usage": 432.0, "vss_mib": 786.5234375, "rss_mib": 86.66796875, "num_processes": 1, "taken_at": [1612643204.1743803]}
{"cpu_time": 233.75, "user_time": 139.54, "system_time": 94.2, "elapsed_time": 57.0, "cpu_usage": 432.9, "vss_mib": 786.5234375, "rss_mib": 86.66796875, "num_processes": 1, "taken_at": [1612643205.1904182]}
{"cpu_time": 237.97, "user_time": 142.12, "system_time": 95.85, "elapsed_time": 58.0, "cpu_usage": 433.8, "vss_mib": 786.5234375, "rss_mib": 86.66796875, "num_processes": 1, "taken_at": [1612643206.2003298]}
{"cpu_time": 241.91, "user_time": 144.53, "system_time": 97.38, "elapsed_time": 59.0, "cpu_usage": 432.0, "vss_mib": 786.5234375, "rss_mib": 86.66796875, "num_processes": 1, "taken_at": [1612643207.2126372]}
{"cpu_time": 246.0, "user_time": 146.96, "system_time": 99.03999999999999, "elapsed_time": 60.0, "cpu_usage": 431.8, "vss_mib": 786.5234375, "rss_mib": 86.66796875, "num_processes": 1, "taken_at": [1612643208.2356791]}
{"cpu_time": 247.25, "user_time": 147.71, "system_time": 99.53999999999999, "elapsed_time": 61.0, "cpu_usage": 396.6, "vss_mib": 786.5234375, "rss_mib": 86.734375, "num_processes": 1, "taken_at": [1612643209.3076112]}
{"cpu_time": 247.57, "user_time": 147.77, "system_time": 99.81, "elapsed_time": 62.0, "cpu_usage": 359.7, "vss_mib": 786.5234375, "rss_mib": 86.734375, "num_processes": 1, "taken_at": [1612643210.3292978]}
{"cpu_time": 247.6, "user_time": 147.78, "system_time": 99.82, "elapsed_time": 63.0, "cpu_usage": 307.6, "vss_mib": 786.5234375, "rss_mib": 86.734375, "num_processes": 1, "taken_at": [1612643211.3481827]}
{"cpu_time": 247.6, "user_time": 147.78, "system_time": 99.82, "elapsed_time": 64.0, "cpu_usage": 276.3, "vss_mib": 786.5234375, "rss_mib": 86.734375, "num_processes": 1, "taken_at": [1612643212.3579023]}
