{"cpu_time": 0.01, "user_time": 0.0, "system_time": 0.01, "elapsed_time": 0.0, "cpu_usage": 0.0, "vss_mib": 786.5234375, "rss_mib": 6.609375, "num_processes": 1, "taken_at": [1612642010.24304]}
{"cpu_time": 2.44, "user_time": 1.24, "system_time": 1.2, "elapsed_time": 1.0, "cpu_usage": 25.1, "vss_mib": 786.5234375, "rss_mib": 30.4375, "num_processes": 1, "taken_at": [1612642011.2822895]}
{"cpu_time": 5.97, "user_time": 2.94, "system_time": 3.03, "elapsed_time": 2.0, "cpu_usage": 54.7, "vss_mib": 786.5234375, "rss_mib": 42.5234375, "num_processes": 1, "taken_at": [1612642012.2929168]}
{"cpu_time": 9.66, "user_time": 5.03, "system_time": 4.63, "elapsed_time": 3.0, "cpu_usage": 83.5, "vss_mib": 786.5234375, "rss_mib": 46.2265625, "num_processes": 1, "taken_at": [1612642013.3026874]}
{"cpu_time": 13.96, "user_time": 7.74, "system_time": 6.22, "elapsed_time": 4.0, "cpu_usage": 115.3, "vss_mib": 786.5234375, "rss_mib": 47.9296875, "num_processes": 1, "taken_at": [1612642014.3485937]}
{"cpu_time": 17.8, "user_time": 10.16, "system_time": 7.65, "elapsed_time": 5.0, "cpu_usage": 139.5, "vss_mib": 786.5234375, "rss_mib": 48.51953125, "num_processes": 1, "taken_at": [1612642015.3813727]}
{"cpu_time": 21.73, "user_time": 12.56, "system_time": 9.17, "elapsed_time": 6.0, "cpu_usage": 162.6, "vss_mib": 786.5234375, "rss_mib": 49.17578125, "num_processes": 1, "taken_at": [1612642016.414573]}
{"cpu_time": 25.61, "user_time": 14.95, "system_time": 10.66, "elapsed_time": 7.0, "cpu_usage": 183.6, "vss_mib": 786.5234375, "rss_mib": 49.8359375, "num_processes": 1, "taken_at": [1612642017.433568]}
{"cpu_time": 29.5, "user_time": 17.3, "system_time": 12.2, "elapsed_time": 8.0, "cpu_usage": 202.2, "vss_mib": 786.5234375, "rss_mib": 49.96484375, "num_processes": 1, "taken_at": [1612642018.4457116]}
{"cpu_time": 33.37, "user_time": 19.65, "system_time": 13.72, "elapsed_time": 9.0, "cpu_usage": 219.4, "vss_mib": 786.5234375, "rss_mib": 50.36328125, "num_processes": 1, "taken_at": [1612642019.455735]}
{"cpu_time": 37.27, "user_time": 21.98, "system_time": 15.3, "elapsed_time": 10.0, "cpu_usage": 235.6, "vss_mib": 786.5234375, "rss_mib": 51.0234375, "num_processes": 1, "taken_at": [1612642020.500215]}
{"cpu_time": 41.19, "user_time": 24.33, "system_time": 16.86, "elapsed_time": 11.0, "cpu_usage": 250.3, "vss_mib": 786.5234375, "rss_mib": 51.16015625, "num_processes": 1, "taken_at": [1612642021.5116708]}
{"cpu_time": 44.85, "user_time": 26.43, "system_time": 18.42, "elapsed_time": 12.0, "cpu_usage": 261.0, "vss_mib": 786.5234375, "rss_mib": 51.2578125, "num_processes": 1, "taken_at": [1612642022.5237198]}
{"cpu_time": 48.82, "user_time": 28.92, "system_time": 19.89, "elapsed_time": 13.0, "cpu_usage": 274.2, "vss_mib": 786.5234375, "rss_mib": 51.3359375, "num_processes": 1, "taken_at": [1612642023.5351]}
{"cpu_time": 52.84, "user_time": 31.39, "system_time": 21.46, "elapsed_time": 14.0, "cpu_usage": 286.6, "vss_mib": 786.5234375, "rss_mib": 51.3359375, "num_processes": 1, "taken_at": [1612642024.606657]}
{"cpu_time": 56.54, "user_time": 33.51, "system_time": 23.03, "elapsed_time": 15.0, "cpu_usage": 295.1, "vss_mib": 786.5234375, "rss_mib": 51.359375, "num_processes": 1, "taken_at": [1612642025.6156638]}
{"cpu_time": 60.39, "user_time": 35.86, "system_time": 24.53, "elapsed_time": 16.0, "cpu_usage": 304.4, "vss_mib": 786.5234375, "rss_mib": 51.85546875, "num_processes": 1, "taken_at": [1612642026.678767]}
{"cpu_time": 64.06, "user_time": 38.05, "system_time": 26.01, "elapsed_time": 17.0, "cpu_usage": 310.7, "vss_mib": 786.5234375, "rss_mib": 52.26171875, "num_processes": 1, "taken_at": [1612642027.6884933]}
{"cpu_time": 67.79, "user_time": 40.44, "system_time": 27.35, "elapsed_time": 18.0, "cpu_usage": 317.1, "vss_mib": 786.5234375, "rss_mib": 52.5859375, "num_processes": 1, "taken_at": [1612642028.6999707]}
{"cpu_time": 71.86, "user_time": 42.87, "system_time": 28.99, "elapsed_time": 19.0, "cpu_usage": 327.0, "vss_mib": 786.5234375, "rss_mib": 52.68359375, "num_processes": 1, "taken_at": [1612642029.7292342]}
{"cpu_time": 75.81, "user_time": 45.21, "system_time": 30.6, "elapsed_time": 20.0, "cpu_usage": 334.2, "vss_mib": 786.5234375, "rss_mib": 52.7109375, "num_processes": 1, "taken_at": [1612642030.760663]}
{"cpu_time": 79.42, "user_time": 47.41, "system_time": 32.01, "elapsed_time": 21.0, "cpu_usage": 338.3, "vss_mib": 786.5234375, "rss_mib": 52.7109375, "num_processes": 1, "taken_at": [1612642031.772491]}
{"cpu_time": 83.42, "user_time": 49.87, "system_time": 33.56, "elapsed_time": 22.0, "cpu_usage": 345.0, "vss_mib": 786.5234375, "rss_mib": 52.7109375, "num_processes": 1, "taken_at": [1612642032.7826993]}
{"cpu_time": 87.28, "user_time": 52.32, "system_time": 34.97, "elapsed_time": 23.0, "cpu_usage": 349.7, "vss_mib": 786.5234375, "rss_mib": 52.7109375, "num_processes": 1, "taken_at": [1612642033.7936993]}
{"cpu_time": 91.05, "user_time": 54.66, "system_time": 36.39, "elapsed_time": 24.0, "cpu_usage": 353.0, "vss_mib": 786.5234375, "rss_mib": 53.0703125, "num_processes": 1, "taken_at": [1612642034.8043356]}
{"cpu_time": 95.03, "user_time": 57.09, "system_time": 37.94, "elapsed_time": 25.0, "cpu_usage": 358.4, "vss_mib": 786.5234375, "rss_mib": 53.30859375, "num_processes": 1, "taken_at": [1612642035.8156204]}
{"cpu_time": 98.81, "user_time": 59.41, "system_time": 39.4, "elapsed_time": 26.0, "cpu_usage": 361.5, "vss_mib": 786.5234375, "rss_mib": 53.8203125, "num_processes": 1, "taken_at": [1612642036.8254466]}
{"cpu_time": 102.84, "user_time": 61.89, "system_time": 40.96, "elapsed_time": 27.0, "cpu_usage": 367.0, "vss_mib": 786.5234375, "rss_mib": 54.3203125, "num_processes": 1, "taken_at": [1612642037.8805838]}
{"cpu_time": 106.58, "user_time": 64.13, "system_time": 42.45, "elapsed_time": 28.0, "cpu_usage": 369.2, "vss_mib": 786.5234375, "rss_mib": 54.62109375, "num_processes": 1, "taken_at": [1612642038.8920662]}
{"cpu_time": 110.4, "user_time": 66.69, "system_time": 43.71, "elapsed_time": 29.0, "cpu_usage": 371.7, "vss_mib": 786.5234375, "rss_mib": 55.421875, "num_processes": 1, "taken_at": [1612642039.9037]}
{"cpu_time": 114.2, "user_time": 69.05, "system_time": 45.15, "elapsed_time": 30.0, "cpu_usage": 374.3, "vss_mib": 786.5234375, "rss_mib": 55.71484375, "num_processes": 1, "taken_at": [1612642040.9136238]}
{"cpu_time": 117.89, "user_time": 71.15, "system_time": 46.74, "elapsed_time": 31.0, "cpu_usage": 374.8, "vss_mib": 786.5234375, "rss_mib": 55.86328125, "num_processes": 1, "taken_at": [1612642041.9231045]}
{"cpu_time": 121.77, "user_time": 73.61, "system_time": 48.16, "elapsed_time": 32.0, "cpu_usage": 377.7, "vss_mib": 786.5234375, "rss_mib": 55.86328125, "num_processes": 1, "taken_at": [1612642042.9337678]}
{"cpu_time": 125.62, "user_time": 75.94, "system_time": 49.68, "elapsed_time": 33.0, "cpu_usage": 380.3, "vss_mib": 786.5234375, "rss_mib": 56.16796875, "num_processes": 1, "taken_at": [1612642043.949266]}
{"cpu_time": 129.19, "user_time": 78.01, "system_time": 51.18, "elapsed_time": 34.0, "cpu_usage": 379.8, "vss_mib": 786.5234375, "rss_mib": 56.5859375, "num_processes": 1, "taken_at": [1612642044.9717023]}
{"cpu_time": 132.97, "user_time": 80.19, "system_time": 52.77, "elapsed_time": 35.0, "cpu_usage": 381.3, "vss_mib": 786.5234375, "rss_mib": 56.5859375, "num_processes": 1, "taken_at": [1612642045.9822116]}
{"cpu_time": 136.73, "user_time": 82.58, "system_time": 54.14, "elapsed_time": 36.0, "cpu_usage": 383.3, "vss_mib": 786.5234375, "rss_mib": 56.5859375, "num_processes": 1, "taken_at": [1612642046.9917207]}
{"cpu_time": 140.42000000000002, "user_time": 84.61, "system_time": 55.81, "elapsed_time": 38.0, "cpu_usage": 383.4, "vss_mib": 786.5234375, "rss_mib": 56.609375, "num_processes": 1, "taken_at": [1612642048.040487]}
{"cpu_time": 144.32, "user_time": 87.0, "system_time": 57.32, "elapsed_time": 39.0, "cpu_usage": 385.4, "vss_mib": 786.5234375, "rss_mib": 56.6328125, "num_processes": 1, "taken_at": [1612642049.0541322]}
{"cpu_time": 148.56, "user_time": 89.78, "system_time": 58.78, "elapsed_time": 40.0, "cpu_usage": 390.3, "vss_mib": 786.5234375, "rss_mib": 56.6328125, "num_processes": 1, "taken_at": [1612642050.0997386]}
{"cpu_time": 152.59, "user_time": 92.22, "system_time": 60.37, "elapsed_time": 41.0, "cpu_usage": 392.9, "vss_mib": 786.5234375, "rss_mib": 56.65625, "num_processes": 1, "taken_at": [1612642051.1684752]}
{"cpu_time": 156.42000000000002, "user_time": 94.63, "system_time": 61.79, "elapsed_time": 42.0, "cpu_usage": 394.0, "vss_mib": 786.5234375, "rss_mib": 56.7265625, "num_processes": 1, "taken_at": [1612642052.1797144]}
{"cpu_time": 160.21, "user_time": 96.94, "system_time": 63.27, "elapsed_time": 43.0, "cpu_usage": 395.0, "vss_mib": 786.5234375, "rss_mib": 56.78125, "num_processes": 1, "taken_at": [1612642053.1904771]}
{"cpu_time": 163.99, "user_time": 99.36, "system_time": 64.63, "elapsed_time": 44.0, "cpu_usage": 384.9, "vss_mib": 786.5234375, "rss_mib": 56.78125, "num_processes": 1, "taken_at": [1612642054.2137175]}
{"cpu_time": 167.9, "user_time": 101.91, "system_time": 65.99, "elapsed_time": 45.0, "cpu_usage": 386.6, "vss_mib": 786.5234375, "rss_mib": 56.78125, "num_processes": 1, "taken_at": [1612642055.241319]}
{"cpu_time": 171.53, "user_time": 104.03999999999999, "system_time": 67.49, "elapsed_time": 46.0, "cpu_usage": 385.7, "vss_mib": 786.5234375, "rss_mib": 56.78125, "num_processes": 1, "taken_at": [1612642056.2592165]}
{"cpu_time": 175.45, "user_time": 106.39, "system_time": 69.06, "elapsed_time": 47.0, "cpu_usage": 387.5, "vss_mib": 786.5234375, "rss_mib": 56.78125, "num_processes": 1, "taken_at": [1612642057.2692862]}
{"cpu_time": 179.37, "user_time": 109.09, "system_time": 70.28, "elapsed_time": 48.0, "cpu_usage": 389.4, "vss_mib": 786.5234375, "rss_mib": 56.78125, "num_processes": 1, "taken_at": [1612642058.3097005]}
{"cpu_time": 183.12, "user_time": 111.36, "system_time": 71.76, "elapsed_time": 49.0, "cpu_usage": 389.8, "vss_mib": 786.5234375, "rss_mib": 56.78125, "num_processes": 1, "taken_at": [1612642059.328885]}
{"cpu_time": 186.96, "user_time": 113.68, "system_time": 73.27, "elapsed_time": 50.0, "cpu_usage": 390.9, "vss_mib": 786.5234375, "rss_mib": 56.78125, "num_processes": 1, "taken_at": [1612642060.3394637]}
{"cpu_time": 190.8, "user_time": 116.03, "system_time": 74.76, "elapsed_time": 51.0, "cpu_usage": 392.0, "vss_mib": 786.5234375, "rss_mib": 56.78125, "num_processes": 1, "taken_at": [1612642061.3507445]}
{"cpu_time": 194.67, "user_time": 118.43, "system_time": 76.24, "elapsed_time": 52.0, "cpu_usage": 371.0, "vss_mib": 786.5234375, "rss_mib": 56.78125, "num_processes": 1, "taken_at": [1612642062.3727639]}
{"cpu_time": 198.43, "user_time": 120.61, "system_time": 77.82, "elapsed_time": 53.0, "cpu_usage": 371.0, "vss_mib": 786.5234375, "rss_mib": 56.78125, "num_processes": 1, "taken_at": [1612642063.3841028]}
{"cpu_time": 202.55, "user_time": 123.13, "system_time": 79.43, "elapsed_time": 54.0, "cpu_usage": 375.0, "vss_mib": 786.5234375, "rss_mib": 56.78125, "num_processes": 1, "taken_at": [1612642064.4441438]}
{"cpu_time": 206.37, "user_time": 125.55, "system_time": 80.83, "elapsed_time": 55.0, "cpu_usage": 375.5, "vss_mib": 786.5234375, "rss_mib": 56.78125, "num_processes": 1, "taken_at": [1612642065.455278]}
{"cpu_time": 210.37, "user_time": 128.18, "system_time": 82.2, "elapsed_time": 56.0, "cpu_usage": 378.1, "vss_mib": 786.5234375, "rss_mib": 56.78125, "num_processes": 1, "taken_at": [1612642066.4774725]}
{"cpu_time": 214.07999999999998, "user_time": 130.28, "system_time": 83.8, "elapsed_time": 57.0, "cpu_usage": 377.6, "vss_mib": 786.5234375, "rss_mib": 56.78125, "num_processes": 1, "taken_at": [1612642067.4886658]}
{"cpu_time": 218.1, "user_time": 132.9, "system_time": 85.2, "elapsed_time": 58.0, "cpu_usage": 380.5, "vss_mib": 786.5234375, "rss_mib": 56.78125, "num_processes": 1, "taken_at": [1612642068.528474]}
{"cpu_time": 222.1, "user_time": 135.39, "system_time": 86.7, "elapsed_time": 59.0, "cpu_usage": 382.6, "vss_mib": 786.5234375, "rss_mib": 56.78125, "num_processes": 1, "taken_at": [1612642069.5394292]}
{"cpu_time": 225.32999999999998, "user_time": 137.16, "system_time": 88.18, "elapsed_time": 60.0, "cpu_usage": 377.0, "vss_mib": 786.5234375, "rss_mib": 56.84375, "num_processes": 1, "taken_at": [1612642070.5664446]}
{"cpu_time": 225.49, "user_time": 137.16, "system_time": 88.32, "elapsed_time": 61.0, "cpu_usage": 332.3, "vss_mib": 786.5234375, "rss_mib": 56.84375, "num_processes": 1, "taken_at": [1612642071.5886767]}
{"cpu_time": 225.49, "user_time": 137.16, "system_time": 88.32, "elapsed_time": 62.0, "cpu_usage": 298.1, "vss_mib": 786.5234375, "rss_mib": 56.84375, "num_processes": 1, "taken_at": [1612642072.600407]}
{"cpu_time": 225.49, "user_time": 137.16, "system_time": 88.32, "elapsed_time": 63.0, "cpu_usage": 265.8, "vss_mib": 786.5234375, "rss_mib": 56.84375, "num_processes": 1, "taken_at": [1612642073.6705298]}
{"cpu_time": 225.49, "user_time": 137.16, "system_time": 88.32, "elapsed_time": 64.0, "cpu_usage": 237.9, "vss_mib": 786.5234375, "rss_mib": 56.84375, "num_processes": 1, "taken_at": [1612642074.7114375]}
