{"cpu_time": 0.01, "user_time": 0.0, "system_time": 0.01, "elapsed_time": 0.0, "cpu_usage": 0.0, "vss_mib": 786.5234375, "rss_mib": 6.578125, "num_processes": 1, "taken_at": [1612641782.2339866]}
{"cpu_time": 1.58, "user_time": 0.57, "system_time": 1.01, "elapsed_time": 1.0, "cpu_usage": 17.3, "vss_mib": 786.5234375, "rss_mib": 20.859375, "num_processes": 1, "taken_at": [1612641783.3047166]}
{"cpu_time": 4.21, "user_time": 1.59, "system_time": 2.61, "elapsed_time": 2.0, "cpu_usage": 39.9, "vss_mib": 786.5234375, "rss_mib": 39.21484375, "num_processes": 1, "taken_at": [1612641784.3165915]}
{"cpu_time": 6.89, "user_time": 2.84, "system_time": 4.05, "elapsed_time": 3.0, "cpu_usage": 60.0, "vss_mib": 786.5234375, "rss_mib": 44.14453125, "num_processes": 1, "taken_at": [1612641785.3495367]}
{"cpu_time": 9.33, "user_time": 3.89, "system_time": 5.45, "elapsed_time": 4.0, "cpu_usage": 76.9, "vss_mib": 786.5234375, "rss_mib": 46.47265625, "num_processes": 1, "taken_at": [1612641786.358422]}
{"cpu_time": 11.95, "user_time": 4.95, "system_time": 7.0, "elapsed_time": 5.0, "cpu_usage": 93.6, "vss_mib": 786.5234375, "rss_mib": 48.5, "num_processes": 1, "taken_at": [1612641787.3697333]}
{"cpu_time": 14.65, "user_time": 6.37, "system_time": 8.28, "elapsed_time": 6.0, "cpu_usage": 109.0, "vss_mib": 786.5234375, "rss_mib": 49.77734375, "num_processes": 1, "taken_at": [1612641788.3817472]}
{"cpu_time": 17.17, "user_time": 7.66, "system_time": 9.5, "elapsed_time": 7.0, "cpu_usage": 122.1, "vss_mib": 786.5234375, "rss_mib": 50.76171875, "num_processes": 1, "taken_at": [1612641789.4433851]}
{"cpu_time": 19.77, "user_time": 8.97, "system_time": 10.79, "elapsed_time": 8.0, "cpu_usage": 134.9, "vss_mib": 786.5234375, "rss_mib": 50.9921875, "num_processes": 1, "taken_at": [1612641790.4512486]}
{"cpu_time": 22.26, "user_time": 10.04, "system_time": 12.22, "elapsed_time": 9.0, "cpu_usage": 145.5, "vss_mib": 786.5234375, "rss_mib": 52.09375, "num_processes": 1, "taken_at": [1612641791.460181]}
{"cpu_time": 24.84, "user_time": 11.19, "system_time": 13.65, "elapsed_time": 10.0, "cpu_usage": 155.7, "vss_mib": 786.5234375, "rss_mib": 52.3671875, "num_processes": 1, "taken_at": [1612641792.5214767]}
{"cpu_time": 27.72, "user_time": 12.5, "system_time": 15.22, "elapsed_time": 11.0, "cpu_usage": 167.8, "vss_mib": 786.5234375, "rss_mib": 52.4453125, "num_processes": 1, "taken_at": [1612641793.5823665]}
{"cpu_time": 30.44, "user_time": 13.85, "system_time": 16.59, "elapsed_time": 12.0, "cpu_usage": 177.9, "vss_mib": 786.5234375, "rss_mib": 53.078125, "num_processes": 1, "taken_at": [1612641794.6526766]}
{"cpu_time": 33.21, "user_time": 15.23, "system_time": 17.97, "elapsed_time": 13.0, "cpu_usage": 187.6, "vss_mib": 786.5234375, "rss_mib": 53.15625, "num_processes": 1, "taken_at": [1612641795.6616955]}
{"cpu_time": 35.79, "user_time": 16.48, "system_time": 19.3, "elapsed_time": 14.0, "cpu_usage": 194.3, "vss_mib": 786.5234375, "rss_mib": 53.29296875, "num_processes": 1, "taken_at": [1612641796.6844285]}
{"cpu_time": 37.98, "user_time": 17.42, "system_time": 20.55, "elapsed_time": 15.0, "cpu_usage": 196.8, "vss_mib": 786.5234375, "rss_mib": 53.58984375, "num_processes": 1, "taken_at": [1612641797.7166905]}
{"cpu_time": 40.72, "user_time": 18.75, "system_time": 21.98, "elapsed_time": 16.0, "cpu_usage": 205.0, "vss_mib": 786.5234375, "rss_mib": 53.765625, "num_processes": 1, "taken_at": [1612641798.7251623]}
{"cpu_time": 43.47, "user_time": 20.13, "system_time": 23.34, "elapsed_time": 17.0, "cpu_usage": 211.9, "vss_mib": 786.5234375, "rss_mib": 54.04296875, "num_processes": 1, "taken_at": [1612641799.746454]}
{"cpu_time": 46.04, "user_time": 21.41, "system_time": 24.63, "elapsed_time": 18.0, "cpu_usage": 216.5, "vss_mib": 786.5234375, "rss_mib": 54.08203125, "num_processes": 1, "taken_at": [1612641800.7575762]}
{"cpu_time": 48.45, "user_time": 22.6, "system_time": 25.84, "elapsed_time": 19.0, "cpu_usage": 219.1, "vss_mib": 786.5234375, "rss_mib": 54.12109375, "num_processes": 1, "taken_at": [1612641801.775379]}
{"cpu_time": 50.93, "user_time": 23.84, "system_time": 27.09, "elapsed_time": 20.0, "cpu_usage": 222.3, "vss_mib": 786.5234375, "rss_mib": 54.30859375, "num_processes": 1, "taken_at": [1612641802.7847173]}
{"cpu_time": 53.5, "user_time": 25.09, "system_time": 28.42, "elapsed_time": 21.0, "cpu_usage": 226.1, "vss_mib": 786.5234375, "rss_mib": 54.89453125, "num_processes": 1, "taken_at": [1612641803.7950034]}
{"cpu_time": 56.04, "user_time": 26.12, "system_time": 29.92, "elapsed_time": 22.0, "cpu_usage": 229.3, "vss_mib": 786.5234375, "rss_mib": 54.91015625, "num_processes": 1, "taken_at": [1612641804.8112588]}
{"cpu_time": 58.52, "user_time": 27.21, "system_time": 31.31, "elapsed_time": 23.0, "cpu_usage": 231.5, "vss_mib": 786.5234375, "rss_mib": 54.91796875, "num_processes": 1, "taken_at": [1612641805.8201554]}
{"cpu_time": 61.12, "user_time": 28.44, "system_time": 32.68, "elapsed_time": 24.0, "cpu_usage": 234.7, "vss_mib": 786.5234375, "rss_mib": 55.125, "num_processes": 1, "taken_at": [1612641806.8285024]}
{"cpu_time": 63.61, "user_time": 29.58, "system_time": 34.03, "elapsed_time": 25.0, "cpu_usage": 236.7, "vss_mib": 786.5234375, "rss_mib": 55.2421875, "num_processes": 1, "taken_at": [1612641807.8377957]}
{"cpu_time": 66.21, "user_time": 30.97, "system_time": 35.24, "elapsed_time": 26.0, "cpu_usage": 240.2, "vss_mib": 786.5234375, "rss_mib": 55.35546875, "num_processes": 1, "taken_at": [1612641808.854386]}
{"cpu_time": 68.73, "user_time": 32.06, "system_time": 36.68, "elapsed_time": 27.0, "cpu_usage": 241.7, "vss_mib": 786.5234375, "rss_mib": 55.35546875, "num_processes": 1, "taken_at": [1612641809.8747656]}
{"cpu_time": 71.34, "user_time": 33.2, "system_time": 38.15, "elapsed_time": 28.0, "cpu_usage": 244.6, "vss_mib": 786.5234375, "rss_mib": 55.35546875, "num_processes": 1, "taken_at": [1612641810.8926964]}
{"cpu_time": 74.11, "user_time": 34.57, "system_time": 39.55, "elapsed_time": 29.0, "cpu_usage": 248.3, "vss_mib": 786.5234375, "rss_mib": 55.35546875, "num_processes": 1, "taken_at": [1612641811.903428]}
{"cpu_time": 76.78999999999999, "user_time": 35.79, "system_time": 41.0, "elapsed_time": 30.0, "cpu_usage": 250.5, "vss_mib": 786.5234375, "rss_mib": 55.35546875, "num_processes": 1, "taken_at": [1612641812.911736]}
{"cpu_time": 79.3, "user_time": 36.81, "system_time": 42.48, "elapsed_time": 31.0, "cpu_usage": 251.7, "vss_mib": 786.5234375, "rss_mib": 55.61328125, "num_processes": 1, "taken_at": [1612641813.920135]}
{"cpu_time": 81.9, "user_time": 38.19, "system_time": 43.72, "elapsed_time": 32.0, "cpu_usage": 253.3, "vss_mib": 786.5234375, "rss_mib": 55.95703125, "num_processes": 1, "taken_at": [1612641814.9355578]}
{"cpu_time": 84.6, "user_time": 39.59, "system_time": 45.01, "elapsed_time": 33.0, "cpu_usage": 255.6, "vss_mib": 786.5234375, "rss_mib": 55.9765625, "num_processes": 1, "taken_at": [1612641815.947168]}
{"cpu_time": 87.16, "user_time": 40.71, "system_time": 46.45, "elapsed_time": 34.0, "cpu_usage": 256.2, "vss_mib": 786.5234375, "rss_mib": 55.99609375, "num_processes": 1, "taken_at": [1612641816.9585638]}
{"cpu_time": 89.6, "user_time": 41.89, "system_time": 47.71, "elapsed_time": 35.0, "cpu_usage": 256.5, "vss_mib": 786.5234375, "rss_mib": 55.99609375, "num_processes": 1, "taken_at": [1612641817.9697068]}
{"cpu_time": 92.22, "user_time": 43.14, "system_time": 49.08, "elapsed_time": 37.0, "cpu_usage": 257.6, "vss_mib": 786.5234375, "rss_mib": 55.99609375, "num_processes": 1, "taken_at": [1612641819.0090997]}
{"cpu_time": 94.75999999999999, "user_time": 44.46, "system_time": 50.3, "elapsed_time": 38.0, "cpu_usage": 258.8, "vss_mib": 786.5234375, "rss_mib": 55.99609375, "num_processes": 1, "taken_at": [1612641820.0197232]}
{"cpu_time": 97.28999999999999, "user_time": 45.54, "system_time": 51.75, "elapsed_time": 39.0, "cpu_usage": 259.2, "vss_mib": 786.5234375, "rss_mib": 55.99609375, "num_processes": 1, "taken_at": [1612641821.072113]}
{"cpu_time": 100.00999999999999, "user_time": 46.82, "system_time": 53.19, "elapsed_time": 40.0, "cpu_usage": 261.1, "vss_mib": 786.5234375, "rss_mib": 55.99609375, "num_processes": 1, "taken_at": [1612641822.0914323]}
{"cpu_time": 102.69, "user_time": 48.24, "system_time": 54.45, "elapsed_time": 41.0, "cpu_usage": 262.6, "vss_mib": 786.5234375, "rss_mib": 55.99609375, "num_processes": 1, "taken_at": [1612641823.1027608]}
{"cpu_time": 105.00999999999999, "user_time": 49.22, "system_time": 55.78, "elapsed_time": 42.0, "cpu_usage": 260.9, "vss_mib": 786.5234375, "rss_mib": 55.99609375, "num_processes": 1, "taken_at": [1612641824.1112885]}
{"cpu_time": 107.72999999999999, "user_time": 50.42, "system_time": 57.31, "elapsed_time": 43.0, "cpu_usage": 262.7, "vss_mib": 786.5234375, "rss_mib": 55.99609375, "num_processes": 1, "taken_at": [1612641825.1211345]}
{"cpu_time": 110.39, "user_time": 51.68, "system_time": 58.71, "elapsed_time": 44.0, "cpu_usage": 264.5, "vss_mib": 786.5234375, "rss_mib": 55.99609375, "num_processes": 1, "taken_at": [1612641826.1574023]}
{"cpu_time": 113.14, "user_time": 53.01, "system_time": 60.13, "elapsed_time": 45.0, "cpu_usage": 252.9, "vss_mib": 786.5234375, "rss_mib": 55.99609375, "num_processes": 1, "taken_at": [1612641827.1841125]}
{"cpu_time": 115.67, "user_time": 54.07, "system_time": 61.6, "elapsed_time": 46.0, "cpu_usage": 253.1, "vss_mib": 786.5234375, "rss_mib": 55.99609375, "num_processes": 1, "taken_at": [1612641828.2365105]}
{"cpu_time": 118.21000000000001, "user_time": 55.33, "system_time": 62.88, "elapsed_time": 47.0, "cpu_usage": 253.1, "vss_mib": 786.5234375, "rss_mib": 56.08203125, "num_processes": 1, "taken_at": [1612641829.2725258]}
{"cpu_time": 120.8, "user_time": 56.69, "system_time": 64.11, "elapsed_time": 48.0, "cpu_usage": 253.9, "vss_mib": 786.5234375, "rss_mib": 56.21875, "num_processes": 1, "taken_at": [1612641830.2822428]}
{"cpu_time": 123.46, "user_time": 57.97, "system_time": 65.49, "elapsed_time": 49.0, "cpu_usage": 255.1, "vss_mib": 786.5234375, "rss_mib": 56.328125, "num_processes": 1, "taken_at": [1612641831.2971601]}
{"cpu_time": 126.31, "user_time": 59.26, "system_time": 67.05, "elapsed_time": 50.0, "cpu_usage": 258.0, "vss_mib": 786.5234375, "rss_mib": 56.35546875, "num_processes": 1, "taken_at": [1612641832.348737]}
{"cpu_time": 128.84, "user_time": 60.36, "system_time": 68.48, "elapsed_time": 51.0, "cpu_usage": 257.7, "vss_mib": 786.5234375, "rss_mib": 56.37890625, "num_processes": 1, "taken_at": [1612641833.3562071]}
{"cpu_time": 131.43, "user_time": 61.46, "system_time": 69.96000000000001, "elapsed_time": 52.0, "cpu_usage": 258.2, "vss_mib": 786.5234375, "rss_mib": 58.1953125, "num_processes": 1, "taken_at": [1612641834.370363]}
{"cpu_time": 134.01, "user_time": 62.69, "system_time": 71.32, "elapsed_time": 53.0, "cpu_usage": 258.4, "vss_mib": 786.5234375, "rss_mib": 58.20703125, "num_processes": 1, "taken_at": [1612641835.3873103]}
{"cpu_time": 136.6, "user_time": 63.85, "system_time": 72.75, "elapsed_time": 54.0, "cpu_usage": 258.7, "vss_mib": 786.5234375, "rss_mib": 58.21875, "num_processes": 1, "taken_at": [1612641836.3967297]}
{"cpu_time": 139.16, "user_time": 65.2, "system_time": 73.96000000000001, "elapsed_time": 55.0, "cpu_usage": 258.6, "vss_mib": 786.5234375, "rss_mib": 58.23046875, "num_processes": 1, "taken_at": [1612641837.4084957]}
{"cpu_time": 141.77, "user_time": 66.4, "system_time": 75.37, "elapsed_time": 56.0, "cpu_usage": 259.4, "vss_mib": 786.5234375, "rss_mib": 58.23046875, "num_processes": 1, "taken_at": [1612641838.4504397]}
{"cpu_time": 144.37, "user_time": 67.75, "system_time": 76.63, "elapsed_time": 57.0, "cpu_usage": 260.0, "vss_mib": 786.5234375, "rss_mib": 58.23046875, "num_processes": 1, "taken_at": [1612641839.470218]}
{"cpu_time": 147.15, "user_time": 69.1, "system_time": 78.05, "elapsed_time": 58.0, "cpu_usage": 262.2, "vss_mib": 786.5234375, "rss_mib": 58.23046875, "num_processes": 1, "taken_at": [1612641840.4825969]}
{"cpu_time": 149.85, "user_time": 70.42, "system_time": 79.43, "elapsed_time": 59.0, "cpu_usage": 263.7, "vss_mib": 786.5234375, "rss_mib": 58.265625, "num_processes": 1, "taken_at": [1612641841.5360806]}
{"cpu_time": 152.24, "user_time": 71.62, "system_time": 80.63, "elapsed_time": 60.0, "cpu_usage": 262.0, "vss_mib": 786.5234375, "rss_mib": 58.41015625, "num_processes": 1, "taken_at": [1612641842.5451195]}
{"cpu_time": 152.35, "user_time": 71.64, "system_time": 80.71000000000001, "elapsed_time": 61.0, "cpu_usage": 227.6, "vss_mib": 786.5234375, "rss_mib": 58.41015625, "num_processes": 1, "taken_at": [1612641843.6156895]}
{"cpu_time": 152.35, "user_time": 71.64, "system_time": 80.71000000000001, "elapsed_time": 62.0, "cpu_usage": 200.3, "vss_mib": 786.5234375, "rss_mib": 58.41015625, "num_processes": 1, "taken_at": [1612641844.685551]}
{"cpu_time": 152.35, "user_time": 71.64, "system_time": 80.71000000000001, "elapsed_time": 63.0, "cpu_usage": 179.5, "vss_mib": 786.5234375, "rss_mib": 58.41015625, "num_processes": 1, "taken_at": [1612641845.7084985]}
{"cpu_time": 152.35, "user_time": 71.64, "system_time": 80.71000000000001, "elapsed_time": 64.0, "cpu_usage": 160.0, "vss_mib": 786.5234375, "rss_mib": 58.41015625, "num_processes": 1, "taken_at": [1612641846.7787092]}
