Running 1m test @ http://192.168.1.7:9535
  8 threads and 1000 connections
  Thread calibration: mean lat.: 753.820ms, rate sampling interval: 3545ms
  Thread calibration: mean lat.: 1015.591ms, rate sampling interval: 4280ms
  Thread calibration: mean lat.: 964.605ms, rate sampling interval: 4063ms
  Thread calibration: mean lat.: 1175.930ms, rate sampling interval: 4427ms
  Thread calibration: mean lat.: 837.766ms, rate sampling interval: 4028ms
  Thread calibration: mean lat.: 842.378ms, rate sampling interval: 3639ms
  Thread calibration: mean lat.: 1095.375ms, rate sampling interval: 4427ms
  Thread calibration: mean lat.: 987.713ms, rate sampling interval: 4292ms
  Thread Stats   Avg      Stdev     Max   +/- Stdev
    Latency     6.10s     3.05s   18.40s    64.57%
    Req/Sec    20.61k   842.60    22.66k    65.96%
  Latency Distribution (HdrHistogram - Recorded Latency)
 50.000%    5.84s 
 75.000%    8.21s 
 90.000%   10.34s 
 99.000%   13.56s 
 99.900%   16.01s 
 99.990%   17.12s 
 99.999%   18.25s 
100.000%   18.42s 

  Detailed Percentile spectrum:
       Value   Percentile   TotalCount 1/(1-Percentile)

       1.447     0.000000            1         1.00
    2299.903     0.100000       814516         1.11
    3225.599     0.200000      1629529         1.25
    4114.431     0.300000      2443445         1.43
    4972.543     0.400000      3259361         1.67
    5840.895     0.500000      4073419         2.00
    6262.783     0.550000      4479010         2.22
    6717.439     0.600000      4888523         2.50
    7184.383     0.650000      5293311         2.86
    7675.903     0.700000      5701186         3.33
    8212.479     0.750000      6107241         4.00
    8503.295     0.775000      6312633         4.44
    8822.783     0.800000      6515489         5.00
    9158.655     0.825000      6721003         5.71
    9502.719     0.850000      6922938         6.67
    9895.935     0.875000      7124427         8.00
   10108.927     0.887500      7228461         8.89
   10338.303     0.900000      7330116        10.00
   10575.871     0.912500      7430773        11.43
   10838.015     0.925000      7532834        13.33
   11149.311     0.937500      7633302        16.00
   11321.343     0.943750      7685126        17.78
   11493.375     0.950000      7735681        20.00
   11689.983     0.956250      7786303        22.86
   11919.359     0.962500      7838210        26.67
   12165.119     0.968750      7887953        32.00
   12304.383     0.971875      7913394        35.56
   12460.031     0.975000      7938697        40.00
   12632.063     0.978125      7965127        45.71
   12820.479     0.981250      7990280        53.33
   13074.431     0.984375      8015643        64.00
   13197.311     0.985938      8027862        71.11
   13320.191     0.987500      8040438        80.00
   13459.455     0.989062      8053322        91.43
   13639.679     0.990625      8066156       106.67
   13860.863     0.992188      8078553       128.00
   13967.359     0.992969      8084924       142.22
   14090.239     0.993750      8091624       160.00
   14237.695     0.994531      8097671       182.86
   14434.303     0.995313      8104163       213.33
   14671.871     0.996094      8110338       256.00
   14802.943     0.996484      8113596       284.44
   14950.399     0.996875      8116869       320.00
   15089.663     0.997266      8119891       365.71
   15253.503     0.997656      8123103       426.67
   15425.535     0.998047      8126264       512.00
   15532.031     0.998242      8127924       568.89
   15638.527     0.998437      8129499       640.00
   15753.215     0.998633      8131063       731.43
   15884.287     0.998828      8132639       853.33
   16023.551     0.999023      8134217      1024.00
   16105.471     0.999121      8134993      1137.78
   16179.199     0.999219      8135787      1280.00
   16261.119     0.999316      8136585      1462.86
   16343.039     0.999414      8137379      1706.67
   16449.535     0.999512      8138164      2048.00
   16539.647     0.999561      8138553      2275.56
   16629.759     0.999609      8138955      2560.00
   16703.487     0.999658      8139386      2925.71
   16760.831     0.999707      8139773      3413.33
   16826.367     0.999756      8140262      4096.00
   16842.751     0.999780      8140379      4551.11
   16875.519     0.999805      8140561      5120.00
   16924.671     0.999829      8140793      5851.43
   16990.207     0.999854      8140976      6826.67
   17055.743     0.999878      8141172      8192.00
   17088.511     0.999890      8141265      9102.22
   17121.279     0.999902      8141358     10240.00
   17154.047     0.999915      8141448     11702.86
   17203.199     0.999927      8141553     13653.33
   17268.735     0.999939      8141641     16384.00
   17317.887     0.999945      8141693     18204.44
   17367.039     0.999951      8141738     20480.00
   17416.191     0.999957      8141797     23405.71
   17465.343     0.999963      8141840     27306.67
   17547.263     0.999969      8141882     32768.00
   17907.711     0.999973      8141907     36408.89
   18038.783     0.999976      8141932     40960.00
   18137.087     0.999979      8141963     46811.43
   18169.855     0.999982      8141986     54613.33
   18202.623     0.999985      8142009     65536.00
   18219.007     0.999986      8142017     72817.78
   18235.391     0.999988      8142034     81920.00
   18251.775     0.999989      8142051     93622.86
   18268.159     0.999991      8142067    109226.67
   18268.159     0.999992      8142067    131072.00
   18284.543     0.999993      8142081    145635.56
   18284.543     0.999994      8142081    163840.00
   18300.927     0.999995      8142088    187245.71
   18317.311     0.999995      8142094    218453.33
   18333.695     0.999996      8142101    262144.00
   18333.695     0.999997      8142101    291271.11
   18350.079     0.999997      8142108    327680.00
   18350.079     0.999997      8142108    374491.43
   18366.463     0.999998      8142114    436906.67
   18366.463     0.999998      8142114    524288.00
   18382.847     0.999998      8142120    582542.22
   18382.847     0.999998      8142120    655360.00
   18382.847     0.999999      8142120    748982.86
   18382.847     0.999999      8142120    873813.33
   18399.231     0.999999      8142127   1048576.00
   18399.231     0.999999      8142127   1165084.44
   18399.231     0.999999      8142127   1310720.00
   18399.231     0.999999      8142127   1497965.71
   18399.231     0.999999      8142127   1747626.67
   18399.231     1.000000      8142127   2097152.00
   18399.231     1.000000      8142127   2330168.89
   18399.231     1.000000      8142127   2621440.00
   18399.231     1.000000      8142127   2995931.43
   18399.231     1.000000      8142127   3495253.33
   18399.231     1.000000      8142127   4194304.00
   18399.231     1.000000      8142127   4660337.78
   18399.231     1.000000      8142127   5242880.00
   18399.231     1.000000      8142127   5991862.86
   18399.231     1.000000      8142127   6990506.67
   18415.615     1.000000      8142128   8388608.00
   18415.615     1.000000      8142128          inf
#[Mean    =     6097.876, StdDeviation   =     3052.932]
#[Max     =    18399.232, Total count    =      8142128]
#[Buckets =           27, SubBuckets     =         2048]
----------------------------------------------------------
  9731233 requests in 1.00m, 1.16GB read
  Socket errors: connect 0, read 0, write 0, timeout 11
Requests/sec: 162188.91
Transfer/sec:     19.80MB
