{"cpu_time": 0.0, "user_time": 0.0, "system_time": 0.0, "elapsed_time": 0.0, "cpu_usage": 0.0, "vss_mib": 31.546875, "rss_mib": 5.04296875, "num_processes": 1, "taken_at": [1612642162.074194]}
{"cpu_time": 1.17, "user_time": 0.75, "system_time": 0.42, "elapsed_time": 1.0, "cpu_usage": 14.5, "vss_mib": 38.51953125, "rss_mib": 9.12109375, "num_processes": 1, "taken_at": [1612642163.082733]}
{"cpu_time": 3.75, "user_time": 2.07, "system_time": 1.68, "elapsed_time": 2.0, "cpu_usage": 35.4, "vss_mib": 41.9140625, "rss_mib": 11.28125, "num_processes": 1, "taken_at": [1612642164.0934203]}
{"cpu_time": 6.46, "user_time": 3.56, "system_time": 2.9, "elapsed_time": 3.0, "cpu_usage": 57.1, "vss_mib": 41.9140625, "rss_mib": 11.28125, "num_processes": 1, "taken_at": [1612642165.1027434]}
{"cpu_time": 9.16, "user_time": 5.0, "system_time": 4.16, "elapsed_time": 4.0, "cpu_usage": 76.5, "vss_mib": 41.9140625, "rss_mib": 11.28125, "num_processes": 1, "taken_at": [1612642166.1141737]}
{"cpu_time": 11.81, "user_time": 6.58, "system_time": 5.23, "elapsed_time": 5.0, "cpu_usage": 93.3, "vss_mib": 41.9140625, "rss_mib": 11.28125, "num_processes": 1, "taken_at": [1612642167.1254656]}
{"cpu_time": 14.49, "user_time": 8.09, "system_time": 6.41, "elapsed_time": 6.0, "cpu_usage": 109.5, "vss_mib": 41.9140625, "rss_mib": 11.28125, "num_processes": 1, "taken_at": [1612642168.1360936]}
{"cpu_time": 17.3, "user_time": 9.59, "system_time": 7.71, "elapsed_time": 7.0, "cpu_usage": 126.1, "vss_mib": 41.9140625, "rss_mib": 11.28125, "num_processes": 1, "taken_at": [1612642169.150221]}
{"cpu_time": 20.01, "user_time": 11.18, "system_time": 8.83, "elapsed_time": 8.0, "cpu_usage": 140.0, "vss_mib": 41.9140625, "rss_mib": 11.28125, "num_processes": 1, "taken_at": [1612642170.1602454]}
{"cpu_time": 22.84, "user_time": 12.82, "system_time": 10.01, "elapsed_time": 9.0, "cpu_usage": 152.4, "vss_mib": 41.9140625, "rss_mib": 11.28125, "num_processes": 1, "taken_at": [1612642171.2140634]}
{"cpu_time": 25.57, "user_time": 14.31, "system_time": 11.27, "elapsed_time": 10.0, "cpu_usage": 163.6, "vss_mib": 41.9140625, "rss_mib": 11.28125, "num_processes": 1, "taken_at": [1612642172.2426982]}
{"cpu_time": 28.27, "user_time": 15.66, "system_time": 12.61, "elapsed_time": 11.0, "cpu_usage": 172.9, "vss_mib": 41.9140625, "rss_mib": 11.28125, "num_processes": 1, "taken_at": [1612642173.2537234]}
{"cpu_time": 30.97, "user_time": 17.13, "system_time": 13.84, "elapsed_time": 12.0, "cpu_usage": 182.0, "vss_mib": 41.9140625, "rss_mib": 11.28125, "num_processes": 1, "taken_at": [1612642174.2637663]}
{"cpu_time": 33.68, "user_time": 18.54, "system_time": 15.13, "elapsed_time": 13.0, "cpu_usage": 190.8, "vss_mib": 41.9140625, "rss_mib": 11.28125, "num_processes": 1, "taken_at": [1612642175.2732902]}
{"cpu_time": 36.38, "user_time": 19.92, "system_time": 16.48, "elapsed_time": 14.0, "cpu_usage": 199.8, "vss_mib": 41.9140625, "rss_mib": 11.28125, "num_processes": 1, "taken_at": [1612642176.2834432]}
{"cpu_time": 39.06, "user_time": 21.27, "system_time": 17.79, "elapsed_time": 15.0, "cpu_usage": 206.8, "vss_mib": 41.9140625, "rss_mib": 11.28125, "num_processes": 1, "taken_at": [1612642177.2936962]}
{"cpu_time": 41.78, "user_time": 22.81, "system_time": 18.98, "elapsed_time": 16.0, "cpu_usage": 212.6, "vss_mib": 41.9140625, "rss_mib": 11.28125, "num_processes": 1, "taken_at": [1612642178.3030703]}
{"cpu_time": 44.49, "user_time": 24.19, "system_time": 20.31, "elapsed_time": 17.0, "cpu_usage": 218.8, "vss_mib": 41.9140625, "rss_mib": 11.28125, "num_processes": 1, "taken_at": [1612642179.312829]}
{"cpu_time": 47.17, "user_time": 25.67, "system_time": 21.5, "elapsed_time": 18.0, "cpu_usage": 224.9, "vss_mib": 41.9140625, "rss_mib": 11.28125, "num_processes": 1, "taken_at": [1612642180.3213751]}
{"cpu_time": 49.91, "user_time": 27.05, "system_time": 22.86, "elapsed_time": 19.0, "cpu_usage": 228.9, "vss_mib": 41.9140625, "rss_mib": 11.28125, "num_processes": 1, "taken_at": [1612642181.3321252]}
{"cpu_time": 52.57, "user_time": 28.44, "system_time": 24.13, "elapsed_time": 20.0, "cpu_usage": 232.9, "vss_mib": 41.9140625, "rss_mib": 11.28125, "num_processes": 1, "taken_at": [1612642182.3402317]}
{"cpu_time": 55.33, "user_time": 29.74, "system_time": 25.59, "elapsed_time": 21.0, "cpu_usage": 236.7, "vss_mib": 41.9140625, "rss_mib": 11.28125, "num_processes": 1, "taken_at": [1612642183.368393]}
{"cpu_time": 58.03, "user_time": 31.33, "system_time": 26.7, "elapsed_time": 22.0, "cpu_usage": 240.8, "vss_mib": 41.9140625, "rss_mib": 11.28125, "num_processes": 1, "taken_at": [1612642184.378112]}
{"cpu_time": 60.74, "user_time": 32.8, "system_time": 27.94, "elapsed_time": 23.0, "cpu_usage": 243.3, "vss_mib": 41.9140625, "rss_mib": 11.28125, "num_processes": 1, "taken_at": [1612642185.3883448]}
{"cpu_time": 63.46, "user_time": 34.12, "system_time": 29.34, "elapsed_time": 24.0, "cpu_usage": 245.3, "vss_mib": 41.9140625, "rss_mib": 11.28125, "num_processes": 1, "taken_at": [1612642186.3983643]}
{"cpu_time": 66.2, "user_time": 35.58, "system_time": 30.62, "elapsed_time": 25.0, "cpu_usage": 247.5, "vss_mib": 41.9140625, "rss_mib": 11.28125, "num_processes": 1, "taken_at": [1612642187.430979]}
{"cpu_time": 68.85, "user_time": 37.16, "system_time": 31.69, "elapsed_time": 26.0, "cpu_usage": 250.0, "vss_mib": 41.9140625, "rss_mib": 11.28125, "num_processes": 1, "taken_at": [1612642188.4416702]}
{"cpu_time": 71.49, "user_time": 38.62, "system_time": 32.87, "elapsed_time": 27.0, "cpu_usage": 250.2, "vss_mib": 41.9140625, "rss_mib": 11.28125, "num_processes": 1, "taken_at": [1612642189.4502373]}
{"cpu_time": 74.3, "user_time": 40.05, "system_time": 34.25, "elapsed_time": 28.0, "cpu_usage": 252.0, "vss_mib": 41.9140625, "rss_mib": 11.28125, "num_processes": 1, "taken_at": [1612642190.460296]}
{"cpu_time": 77.06, "user_time": 41.57, "system_time": 35.5, "elapsed_time": 29.0, "cpu_usage": 253.9, "vss_mib": 41.9140625, "rss_mib": 11.28125, "num_processes": 1, "taken_at": [1612642191.4916096]}
{"cpu_time": 79.78, "user_time": 43.0, "system_time": 36.78, "elapsed_time": 30.0, "cpu_usage": 255.6, "vss_mib": 41.9140625, "rss_mib": 11.28125, "num_processes": 1, "taken_at": [1612642192.5012512]}
{"cpu_time": 82.45, "user_time": 44.31, "system_time": 38.14, "elapsed_time": 31.0, "cpu_usage": 257.0, "vss_mib": 41.9140625, "rss_mib": 11.28125, "num_processes": 1, "taken_at": [1612642193.5125892]}
{"cpu_time": 85.18, "user_time": 45.76, "system_time": 39.42, "elapsed_time": 32.0, "cpu_usage": 258.2, "vss_mib": 41.9140625, "rss_mib": 11.28125, "num_processes": 1, "taken_at": [1612642194.520869]}
{"cpu_time": 87.81, "user_time": 47.17, "system_time": 40.63, "elapsed_time": 33.0, "cpu_usage": 259.8, "vss_mib": 41.9140625, "rss_mib": 11.28125, "num_processes": 1, "taken_at": [1612642195.5293732]}
{"cpu_time": 90.62, "user_time": 48.68, "system_time": 41.94, "elapsed_time": 34.0, "cpu_usage": 262.3, "vss_mib": 41.9140625, "rss_mib": 11.28125, "num_processes": 1, "taken_at": [1612642196.5384724]}
{"cpu_time": 93.31, "user_time": 50.36, "system_time": 42.97, "elapsed_time": 35.0, "cpu_usage": 262.3, "vss_mib": 41.9140625, "rss_mib": 11.28125, "num_processes": 1, "taken_at": [1612642197.54906]}
{"cpu_time": 96.00999999999999, "user_time": 51.83, "system_time": 44.17, "elapsed_time": 36.0, "cpu_usage": 263.1, "vss_mib": 41.9140625, "rss_mib": 11.28125, "num_processes": 1, "taken_at": [1612642198.5774577]}
{"cpu_time": 98.77000000000001, "user_time": 53.39, "system_time": 45.38, "elapsed_time": 37.0, "cpu_usage": 266.3, "vss_mib": 41.9140625, "rss_mib": 11.28125, "num_processes": 1, "taken_at": [1612642199.587084]}
{"cpu_time": 101.45, "user_time": 54.92, "system_time": 46.53, "elapsed_time": 38.0, "cpu_usage": 267.3, "vss_mib": 41.9140625, "rss_mib": 11.28125, "num_processes": 1, "taken_at": [1612642200.5981648]}
{"cpu_time": 104.15, "user_time": 56.36, "system_time": 47.79, "elapsed_time": 39.0, "cpu_usage": 269.0, "vss_mib": 41.9140625, "rss_mib": 11.28125, "num_processes": 1, "taken_at": [1612642201.6087408]}
{"cpu_time": 106.84, "user_time": 57.82, "system_time": 49.02, "elapsed_time": 40.0, "cpu_usage": 269.2, "vss_mib": 41.9140625, "rss_mib": 11.28125, "num_processes": 1, "taken_at": [1612642202.6200185]}
{"cpu_time": 109.55, "user_time": 59.42, "system_time": 50.13, "elapsed_time": 41.0, "cpu_usage": 268.0, "vss_mib": 41.9140625, "rss_mib": 11.28125, "num_processes": 1, "taken_at": [1612642203.6310756]}
{"cpu_time": 112.25, "user_time": 60.94, "system_time": 51.31, "elapsed_time": 42.0, "cpu_usage": 267.7, "vss_mib": 41.9140625, "rss_mib": 11.28125, "num_processes": 1, "taken_at": [1612642204.6412127]}
{"cpu_time": 114.97999999999999, "user_time": 62.44, "system_time": 52.54, "elapsed_time": 43.0, "cpu_usage": 268.8, "vss_mib": 41.9140625, "rss_mib": 11.28125, "num_processes": 1, "taken_at": [1612642205.651265]}
{"cpu_time": 117.67, "user_time": 63.87, "system_time": 53.8, "elapsed_time": 44.0, "cpu_usage": 270.2, "vss_mib": 41.9140625, "rss_mib": 11.28125, "num_processes": 1, "taken_at": [1612642206.6616235]}
{"cpu_time": 120.39, "user_time": 65.4, "system_time": 54.98, "elapsed_time": 45.0, "cpu_usage": 271.8, "vss_mib": 41.9140625, "rss_mib": 11.28125, "num_processes": 1, "taken_at": [1612642207.6760097]}
{"cpu_time": 123.1, "user_time": 66.81, "system_time": 56.29, "elapsed_time": 46.0, "cpu_usage": 272.9, "vss_mib": 41.9140625, "rss_mib": 11.28125, "num_processes": 1, "taken_at": [1612642208.686127]}
{"cpu_time": 125.8, "user_time": 68.19, "system_time": 57.61, "elapsed_time": 47.0, "cpu_usage": 274.8, "vss_mib": 41.9140625, "rss_mib": 11.28125, "num_processes": 1, "taken_at": [1612642209.696042]}
{"cpu_time": 128.5, "user_time": 69.6, "system_time": 58.9, "elapsed_time": 48.0, "cpu_usage": 275.7, "vss_mib": 41.9140625, "rss_mib": 11.28125, "num_processes": 1, "taken_at": [1612642210.7060523]}
{"cpu_time": 131.2, "user_time": 71.12, "system_time": 60.07, "elapsed_time": 49.0, "cpu_usage": 276.8, "vss_mib": 41.9140625, "rss_mib": 11.28125, "num_processes": 1, "taken_at": [1612642211.714717]}
{"cpu_time": 133.9, "user_time": 72.48, "system_time": 61.42, "elapsed_time": 50.0, "cpu_usage": 278.0, "vss_mib": 41.9140625, "rss_mib": 11.28125, "num_processes": 1, "taken_at": [1612642212.7250192]}
{"cpu_time": 136.61, "user_time": 73.9, "system_time": 62.71, "elapsed_time": 51.0, "cpu_usage": 277.4, "vss_mib": 41.9140625, "rss_mib": 11.28125, "num_processes": 1, "taken_at": [1612642213.7346325]}
{"cpu_time": 139.3, "user_time": 75.37, "system_time": 63.93, "elapsed_time": 52.0, "cpu_usage": 276.8, "vss_mib": 41.9140625, "rss_mib": 11.28125, "num_processes": 1, "taken_at": [1612642214.744218]}
{"cpu_time": 142.0, "user_time": 76.73, "system_time": 65.27, "elapsed_time": 53.0, "cpu_usage": 277.1, "vss_mib": 41.9140625, "rss_mib": 11.28125, "num_processes": 1, "taken_at": [1612642215.7533517]}
{"cpu_time": 144.6, "user_time": 77.99, "system_time": 66.6, "elapsed_time": 54.0, "cpu_usage": 276.6, "vss_mib": 41.9140625, "rss_mib": 11.28125, "num_processes": 1, "taken_at": [1612642216.7612844]}
{"cpu_time": 147.41, "user_time": 79.51, "system_time": 67.91, "elapsed_time": 55.0, "cpu_usage": 279.2, "vss_mib": 41.9140625, "rss_mib": 11.28125, "num_processes": 1, "taken_at": [1612642217.773857]}
{"cpu_time": 150.11, "user_time": 80.96000000000001, "system_time": 69.15, "elapsed_time": 56.0, "cpu_usage": 279.9, "vss_mib": 41.9140625, "rss_mib": 11.28515625, "num_processes": 1, "taken_at": [1612642218.782943]}
{"cpu_time": 152.82, "user_time": 82.37, "system_time": 70.45, "elapsed_time": 57.0, "cpu_usage": 282.2, "vss_mib": 41.9140625, "rss_mib": 11.28515625, "num_processes": 1, "taken_at": [1612642219.792291]}
{"cpu_time": 155.53, "user_time": 83.78, "system_time": 71.75, "elapsed_time": 58.0, "cpu_usage": 282.5, "vss_mib": 41.9140625, "rss_mib": 11.28515625, "num_processes": 1, "taken_at": [1612642220.801915]}
{"cpu_time": 158.3, "user_time": 85.26, "system_time": 73.03999999999999, "elapsed_time": 59.0, "cpu_usage": 283.9, "vss_mib": 41.9140625, "rss_mib": 11.28515625, "num_processes": 1, "taken_at": [1612642221.8398163]}
{"cpu_time": 159.34, "user_time": 85.82, "system_time": 73.52, "elapsed_time": 60.0, "cpu_usage": 268.8, "vss_mib": 41.9140625, "rss_mib": 11.28515625, "num_processes": 1, "taken_at": [1612642222.8813927]}
{"cpu_time": 159.34, "user_time": 85.82, "system_time": 73.52, "elapsed_time": 61.0, "cpu_usage": 221.1, "vss_mib": 41.9140625, "rss_mib": 11.28515625, "num_processes": 1, "taken_at": [1612642223.942784]}
{"cpu_time": 159.34, "user_time": 85.82, "system_time": 73.52, "elapsed_time": 63.0, "cpu_usage": 196.9, "vss_mib": 41.9140625, "rss_mib": 11.28515625, "num_processes": 1, "taken_at": [1612642225.0124946]}
{"cpu_time": 159.34, "user_time": 85.82, "system_time": 73.52, "elapsed_time": 64.0, "cpu_usage": 175.6, "vss_mib": 41.9140625, "rss_mib": 11.28515625, "num_processes": 1, "taken_at": [1612642226.082513]}
{"cpu_time": 159.34, "user_time": 85.82, "system_time": 73.52, "elapsed_time": 65.0, "cpu_usage": 156.6, "vss_mib": 41.9140625, "rss_mib": 11.28515625, "num_processes": 1, "taken_at": [1612642227.1524682]}
