Running 1m test @ http://192.168.1.7:9508
  8 threads and 100 connections
  Thread calibration: mean lat.: 12.869ms, rate sampling interval: 52ms
  Thread calibration: mean lat.: 14.273ms, rate sampling interval: 53ms
  Thread calibration: mean lat.: 11.775ms, rate sampling interval: 43ms
  Thread calibration: mean lat.: 12.638ms, rate sampling interval: 47ms
  Thread calibration: mean lat.: 12.553ms, rate sampling interval: 45ms
  Thread calibration: mean lat.: 14.527ms, rate sampling interval: 57ms
  Thread calibration: mean lat.: 11.986ms, rate sampling interval: 47ms
  Thread calibration: mean lat.: 12.871ms, rate sampling interval: 48ms
  Thread Stats   Avg      Stdev     Max   +/- Stdev
    Latency    12.86ms   12.43ms 274.18ms   88.94%
    Req/Sec    12.72k     3.24k   23.00k    67.90%
  Latency Distribution (HdrHistogram - Recorded Latency)
 50.000%   11.24ms
 75.000%   17.36ms
 90.000%   25.30ms
 99.000%   36.32ms
 99.900%  193.54ms
 99.990%  239.87ms
 99.999%  256.13ms
100.000%  274.43ms

  Detailed Percentile spectrum:
       Value   Percentile   TotalCount 1/(1-Percentile)

       0.106     0.000000            1         1.00
       1.529     0.100000       499551         1.11
       4.351     0.200000       999087         1.25
       6.879     0.300000      1498356         1.43
       9.151     0.400000      1999302         1.67
      11.239     0.500000      2497239         2.00
      12.295     0.550000      2747174         2.22
      13.407     0.600000      2996381         2.50
      14.607     0.650000      3247186         2.86
      15.903     0.700000      3496470         3.33
      17.359     0.750000      3746110         4.00
      18.175     0.775000      3870484         4.44
      19.103     0.800000      3996462         5.00
      20.191     0.825000      4121147         5.71
      21.615     0.850000      4245793         6.67
      23.311     0.875000      4369803         8.00
      24.271     0.887500      4432588         8.89
      25.295     0.900000      4495035        10.00
      26.383     0.912500      4557293        11.43
      27.535     0.925000      4619754        13.33
      28.751     0.937500      4682578        16.00
      29.359     0.943750      4713159        17.78
      29.999     0.950000      4744407        20.00
      30.687     0.956250      4775768        22.86
      31.439     0.962500      4806925        26.67
      32.271     0.968750      4838150        32.00
      32.719     0.971875      4853792        35.56
      33.215     0.975000      4869776        40.00
      33.727     0.978125      4884954        45.71
      34.303     0.981250      4900621        53.33
      34.943     0.984375      4916458        64.00
      35.263     0.985938      4923763        71.11
      35.647     0.987500      4931783        80.00
      36.063     0.989062      4939657        91.43
      36.511     0.990625      4947459       106.67
      37.023     0.992188      4955214       128.00
      37.311     0.992969      4958858       142.22
      37.663     0.993750      4963021       160.00
      38.047     0.994531      4966728       182.86
      38.559     0.995313      4970581       213.33
      43.551     0.996094      4974426       256.00
      63.391     0.996484      4976379       284.44
      83.455     0.996875      4978328       320.00
     103.551     0.997266      4980280       365.71
     123.903     0.997656      4982231       426.67
     144.255     0.998047      4984195       512.00
     154.367     0.998242      4985156       568.89
     164.607     0.998437      4986131       640.00
     174.847     0.998633      4987114       731.43
     184.831     0.998828      4988085       853.33
     194.815     0.999023      4989067      1024.00
     199.679     0.999121      4989547      1137.78
     204.543     0.999219      4990038      1280.00
     209.407     0.999316      4990532      1462.86
     214.143     0.999414      4991008      1706.67
     219.135     0.999512      4991500      2048.00
     221.567     0.999561      4991742      2275.56
     223.999     0.999609      4991987      2560.00
     226.431     0.999658      4992234      2925.71
     228.863     0.999707      4992476      3413.33
     231.295     0.999756      4992717      4096.00
     232.575     0.999780      4992841      4551.11
     233.855     0.999805      4992960      5120.00
     235.263     0.999829      4993089      5851.43
     236.671     0.999854      4993204      6826.67
     238.335     0.999878      4993327      8192.00
     239.231     0.999890      4993389      9102.22
     240.127     0.999902      4993449     10240.00
     241.151     0.999915      4993510     11702.86
     242.303     0.999927      4993574     13653.33
     243.455     0.999939      4993627     16384.00
     244.223     0.999945      4993660     18204.44
     244.991     0.999951      4993693     20480.00
     245.631     0.999957      4993725     23405.71
     246.527     0.999963      4993752     27306.67
     247.551     0.999969      4993780     32768.00
     248.063     0.999973      4993795     36408.89
     248.831     0.999976      4993810     40960.00
     249.855     0.999979      4993828     46811.43
     250.879     0.999982      4993840     54613.33
     252.799     0.999985      4993855     65536.00
     253.695     0.999986      4993863     72817.78
     254.719     0.999988      4993872     81920.00
     255.871     0.999989      4993878     93622.86
     256.767     0.999991      4993886    109226.67
     258.047     0.999992      4993893    131072.00
     259.327     0.999993      4993897    145635.56
     260.607     0.999994      4993901    163840.00
     261.759     0.999995      4993905    187245.71
     262.655     0.999995      4993909    218453.33
     263.935     0.999996      4993913    262144.00
     264.447     0.999997      4993915    291271.11
     265.215     0.999997      4993916    327680.00
     266.495     0.999997      4993918    374491.43
     267.775     0.999998      4993920    436906.67
     269.055     0.999998      4993922    524288.00
     269.567     0.999998      4993923    582542.22
     270.079     0.999998      4993924    655360.00
     270.847     0.999999      4993925    748982.86
     271.359     0.999999      4993926    873813.33
     272.127     0.999999      4993927   1048576.00
     272.127     0.999999      4993927   1165084.44
     272.639     0.999999      4993928   1310720.00
     272.639     0.999999      4993928   1497965.71
     273.407     0.999999      4993929   1747626.67
     273.407     1.000000      4993929   2097152.00
     273.407     1.000000      4993929   2330168.89
     273.919     1.000000      4993930   2621440.00
     273.919     1.000000      4993930   2995931.43
     273.919     1.000000      4993930   3495253.33
     273.919     1.000000      4993930   4194304.00
     273.919     1.000000      4993930   4660337.78
     274.431     1.000000      4993931   5242880.00
     274.431     1.000000      4993931          inf
#[Mean    =       12.855, StdDeviation   =       12.434]
#[Max     =      274.176, Total count    =      4993931]
#[Buckets =           27, SubBuckets     =         2048]
----------------------------------------------------------
  5970653 requests in 1.00m, 728.84MB read
Requests/sec:  99512.62
Transfer/sec:     12.15MB
